LowEyeriss_v0719/Low_Eyeriss.vcd
$date
     Aug 08, 2021       14:10:04
$end

$version
 SystemC 2.3.4_pub_rev_20191203-Accellera --- May 20 2021 14:44:35
$end

$timescale
     1 ps
$end

$scope module SystemC $end
$scope module low_eyeriss_i $end
$var wire    1  aaaaa  in_vld       $end
$var wire    8  aaaab  w_wdata(0) [7:0]  $end
$var wire    8  aaaac  w_wdata(1) [7:0]  $end
$var wire    8  aaaad  w_wdata(2) [7:0]  $end
$var wire    8  aaaae  ifmap_wdata(0) [7:0]  $end
$var wire    8  aaaaf  ifmap_wdata(1) [7:0]  $end
$var wire    8  aaaag  ifmap_wdata(2) [7:0]  $end
$var wire    8  aaaah  ifmap_wdata(3) [7:0]  $end
$var wire    8  aaaai  ifmap_wdata(4) [7:0]  $end
$var wire    1  aaaaj  enable       $end
$var wire    1  aaaak  in_vld_PE       $end
$var wire    8  aaaal  weight_out_PE(0)(0) [7:0]  $end
$var wire    8  aaaam  ifmap_out_PE(0)(0) [7:0]  $end
$var wire   12  aaaan  ofmap_out(0)(0) [11:0]  $end
$var wire    1  aaaey  layer_done       $end
$scope module glb_i $end
$var wire    1  aaaao  channel_done       $end
$var wire    8  aaaap  ofmap_channel [7:0]  $end
$var wire   12  aaaef  ofmap_result [11:0]  $end
$var wire    1  aaaeg  layer_done       $end
$var wire   12  aaaeh  ofmap_out(2)(0) [11:0]  $end
$var wire   12  aaaei  ofmap_out(1)(0) [11:0]  $end
$var wire   12  aaaej  ofmap_out(0)(0) [11:0]  $end
$var wire    1  aaaek  out_vld(0)(0)       $end
$var wire    8  aaael  ifmap_wdata(4) [7:0]  $end
$var wire    8  aaaem  ifmap_wdata(3) [7:0]  $end
$var wire    8  aaaen  ifmap_wdata(2) [7:0]  $end
$var wire    8  aaaeo  ifmap_wdata(1) [7:0]  $end
$var wire    8  aaaep  ifmap_wdata(0) [7:0]  $end
$var wire    8  aaaeq  w_wdata(2) [7:0]  $end
$var wire    8  aaaer  w_wdata(1) [7:0]  $end
$var wire    8  aaaes  w_wdata(0) [7:0]  $end
$var wire    1  aaaet  in_vld       $end
$var wire    8  aaaeu  ifmap_rdata [7:0]  $end
$var wire   12  aaaev  addr_ifmpa_in [11:0]  $end
$var wire    8  aaaew  w_rdata [7:0]  $end
$var wire   12  aaaex  addr_w_in [11:0]  $end
$upscope $end
$scope module pe_array_i $end
$var wire   12  aaada  ofmap_out(0)(0) [11:0]  $end
$var wire    1  aaadb  out_vld(0)(0)       $end
$var wire    8  aaadc  ifmap_out_PE(2)(1) [7:0]  $end
$var wire    8  aaadd  ifmap_out_PE(2)(0) [7:0]  $end
$var wire    8  aaade  ifmap_out_PE(1)(1) [7:0]  $end
$var wire    8  aaadf  ifmap_out_PE(1)(0) [7:0]  $end
$var wire    8  aaadg  ifmap_out_PE(0)(1) [7:0]  $end
$var wire    8  aaadh  ifmap_out_PE(0)(0) [7:0]  $end
$var wire    8  aaadi  weight_out_PE(0)(0) [7:0]  $end
$var wire    1  aaadj  in_vld_PE       $end
$var wire    1  aaadk  enable       $end
$scope module PE_0_1 $end
$var wire   12  aaabf  ofmap_out [11:0]  $end
$var wire    8  aaabg  ifmap_in [7:0]  $end
$var wire    8  aaabh  w_in [7:0]  $end
$var wire    1  aaabi  out_vld       $end
$var wire    1  aaabj  in_vld       $end
$var wire    1  aaabk  enable       $end
$upscope $end
$scope module PE_1_0 $end
$var wire   12  aaacu  ofmap_out [11:0]  $end
$var wire    8  aaacv  ifmap_in [7:0]  $end
$var wire    8  aaacw  w_in [7:0]  $end
$var wire    1  aaacx  out_vld       $end
$var wire    1  aaacy  in_vld       $end
$var wire    1  aaacz  enable       $end
$scope module mac_i $end
$var wire   12  aaacj  psum_tmp_MACtoReg [11:0]  $end
$var wire    8  aaack  psum_tmp_RegtoMAC [7:0]  $end
$var wire    8  aaacl  ifmap [7:0]  $end
$var wire    8  aaacm  weight [7:0]  $end
$upscope $end
$scope module regfile_i $end
$var wire    8  aaacn  psum_tmp_RegtoMAC [7:0]  $end
$var wire    8  aaaco  in [7:0]  $end
$var wire    8  aaacp  w [7:0]  $end
$var wire   12  aaacq  psum_tmp_MACtoReg [11:0]  $end
$var wire    8  aaacr  ifmap_in [7:0]  $end
$var wire    8  aaacs  w_in [7:0]  $end
$var wire    1  aaact  in_vld       $end
$upscope $end
$upscope $end
$scope module PE_1_1 $end
$var wire   12  aaabb  ofmap_out [11:0]  $end
$var wire    8  aaabc  ifmap_in [7:0]  $end
$var wire    8  aaabd  w_in [7:0]  $end
$var wire    1  aaabe  out_vld       $end
$upscope $end
$scope module PE_2_0 $end
$var wire   12  aaacd  ofmap_out [11:0]  $end
$var wire    8  aaace  ifmap_in [7:0]  $end
$var wire    8  aaacf  w_in [7:0]  $end
$var wire    1  aaacg  out_vld       $end
$var wire    1  aaach  in_vld       $end
$var wire    1  aaaci  enable       $end
$upscope $end
$scope module PE_2_1 $end
$var wire   12  aaaax  ofmap_out [11:0]  $end
$var wire    8  aaaay  ifmap_in [7:0]  $end
$var wire    8  aaaaz  w_in [7:0]  $end
$var wire    1  aaaba  out_vld       $end
$upscope $end
$scope module PE_5_0 $end
$var wire   12  aaabx  ofmap_out [11:0]  $end
$var wire    8  aaaby  ifmap_in [7:0]  $end
$var wire    8  aaabz  w_in [7:0]  $end
$var wire    1  aaaca  out_vld       $end
$var wire    1  aaacb  in_vld       $end
$var wire    1  aaacc  enable       $end
$upscope $end
$scope module PE_5_1 $end
$var wire   12  aaaar  ofmap_out [11:0]  $end
$var wire    8  aaaas  ifmap_in [7:0]  $end
$var wire    8  aaaat  w_in [7:0]  $end
$var wire    1  aaaau  out_vld       $end
$var wire    1  aaaav  in_vld       $end
$var wire    1  aaaaw  enable       $end
$upscope $end
$scope module PE_6_0 $end
$var wire   12  aaabr  ofmap_out [11:0]  $end
$var wire    8  aaabs  ifmap_in [7:0]  $end
$var wire    8  aaabt  w_in [7:0]  $end
$var wire    1  aaabu  out_vld       $end
$var wire    1  aaabv  in_vld       $end
$var wire    1  aaabw  enable       $end
$upscope $end
$scope module PE_9_0 $end
$var wire   12  aaabl  ofmap_out [11:0]  $end
$var wire    8  aaabm  ifmap_in [7:0]  $end
$var wire    8  aaabn  w_in [7:0]  $end
$var wire    1  aaabo  out_vld       $end
$var wire    1  aaabp  in_vld       $end
$var wire    1  aaabq  enable       $end
$upscope $end
$upscope $end
$scope module scheduler_i $end
$var wire    1  aaaaq  start_sche       $end
$var wire    8  aaadl  ifmap_out_PE(2)(1) [7:0]  $end
$var wire    8  aaadm  ifmap_out_PE(2)(0) [7:0]  $end
$var wire    8  aaadn  ifmap_out_PE(1)(1) [7:0]  $end
$var wire    8  aaado  ifmap_out_PE(1)(0) [7:0]  $end
$var wire    8  aaadp  ifmap_out_PE(0)(1) [7:0]  $end
$var wire    8  aaadq  ifmap_out_PE(0)(0) [7:0]  $end
$var wire    8  aaadr  weight_out_PE(2)(0) [7:0]  $end
$var wire    8  aaads  weight_out_PE(1)(0) [7:0]  $end
$var wire    8  aaadt  weight_out_PE(0)(0) [7:0]  $end
$var wire    1  aaadu  in_vld_PE       $end
$var wire    1  aaadv  enable       $end
$var wire    8  aaadw  ifmap(4) [7:0]  $end
$var wire    8  aaadx  ifmap(3) [7:0]  $end
$var wire    8  aaady  ifmap(2) [7:0]  $end
$var wire    8  aaadz  ifmap(1) [7:0]  $end
$var wire    8  aaaea  ifmap(0) [7:0]  $end
$var wire    8  aaaeb  weight(2) [7:0]  $end
$var wire    8  aaaec  weight(1) [7:0]  $end
$var wire    8  aaaed  weight(0) [7:0]  $end
$var wire    1  aaaee  in_vld       $end
$upscope $end
$upscope $end
$scope module tb_i $end
$var wire   12  aaaez  ofmap_result [11:0]  $end
$var wire    1  aaafa  layer_done       $end
$var wire    8  aaafb  ifmap_rdata [7:0]  $end
$var wire   12  aaafc  addr_ifmpa_in [11:0]  $end
$var wire    8  aaafd  w_rdata [7:0]  $end
$var wire   12  aaafe  addr_w_in [11:0]  $end
$var wire    1  aaaff  rst       $end
$var wire    1  aaafg  clk       $end
$upscope $end
$upscope $end
$enddefinitions  $end

$comment
All initial values are dumped below at time 0 sec = 0 timescale units.
$end

$dumpvars
0aaaaa
b0 aaaab
b0 aaaac
b0 aaaad
b0 aaaae
b0 aaaaf
b0 aaaag
b0 aaaah
b0 aaaai
0aaaaj
0aaaak
b0 aaaal
b0 aaaam
b0 aaaan
0aaaao
b0 aaaap
0aaaaq
b0 aaaar
b0 aaaas
b0 aaaat
0aaaau
0aaaav
0aaaaw
b0 aaaax
b0 aaaay
b0 aaaaz
0aaaba
b0 aaabb
b0 aaabc
b0 aaabd
0aaabe
b0 aaabf
b0 aaabg
b0 aaabh
0aaabi
0aaabj
0aaabk
b0 aaabl
b0 aaabm
b0 aaabn
0aaabo
0aaabp
0aaabq
b0 aaabr
b0 aaabs
b0 aaabt
0aaabu
0aaabv
0aaabw
b0 aaabx
b0 aaaby
b0 aaabz
0aaaca
0aaacb
0aaacc
b0 aaacd
b0 aaace
b0 aaacf
0aaacg
0aaach
0aaaci
b0 aaacj
b0 aaack
b0 aaacl
b0 aaacm
b0 aaacn
b0 aaaco
b0 aaacp
b0 aaacq
b0 aaacr
b0 aaacs
0aaact
b0 aaacu
b0 aaacv
b0 aaacw
0aaacx
0aaacy
0aaacz
b0 aaada
0aaadb
b0 aaadc
b0 aaadd
b0 aaade
b0 aaadf
b0 aaadg
b0 aaadh
b0 aaadi
0aaadj
0aaadk
b0 aaadl
b0 aaadm
b0 aaadn
b0 aaado
b0 aaadp
b0 aaadq
b0 aaadr
b0 aaads
b0 aaadt
0aaadu
0aaadv
b0 aaadw
b0 aaadx
b0 aaady
b0 aaadz
b0 aaaea
b0 aaaeb
b0 aaaec
b0 aaaed
0aaaee
b0 aaaef
0aaaeg
b0 aaaeh
b0 aaaei
b0 aaaej
0aaaek
b0 aaael
b0 aaaem
b0 aaaen
b0 aaaeo
b0 aaaep
b0 aaaeq
b0 aaaer
b0 aaaes
0aaaet
b0 aaaeu
b0 aaaev
b0 aaaew
b0 aaaex
0aaaey
b0 aaaez
0aaafa
b0 aaafb
b0 aaafc
b0 aaafd
b0 aaafe
1aaaff
1aaafg
$end

#5000
0aaafg

#10000
0aaaff
1aaafg

#15000
0aaafg

#20000
b1 aaaev
b10 aaaew
b1 aaaex
b1 aaafc
b10 aaafd
b1 aaafe
1aaafg

#25000
0aaafg

#30000
b10 aaaev
b10 aaaex
b10 aaafc
b10 aaafe
1aaafg

#35000
0aaafg

#40000
b11 aaaev
b11 aaaew
b11 aaaex
b11 aaafc
b11 aaafd
b11 aaafe
1aaafg

#45000
0aaafg

#50000
b100 aaaev
b1 aaaew
b100 aaaex
b100 aaafc
b1 aaafd
b100 aaafe
1aaafg

#55000
0aaafg

#60000
b101 aaaev
b0 aaaew
b101 aaaex
b101 aaafc
b0 aaafd
b101 aaafe
1aaafg

#65000
0aaafg

#70000
b110 aaaev
b1 aaaew
b110 aaaex
b110 aaafc
b1 aaafd
b110 aaafe
1aaafg

#75000
0aaafg

#80000
b111 aaaev
b11 aaaew
b111 aaaex
b111 aaafc
b11 aaafd
b111 aaafe
1aaafg

#85000
0aaafg

#90000
b1000 aaaev
b1 aaaew
b1000 aaaex
b1000 aaafc
b1 aaafd
b1000 aaafe
1aaafg

#95000
0aaafg

#100000
b1001 aaaev
b101 aaaew
b1001 aaaex
b1001 aaafc
b101 aaafd
b1001 aaafe
1aaafg

#105000
0aaafg

#110000
b1010 aaaev
b0 aaaew
b1010 aaaex
b1010 aaafc
b0 aaafd
b1010 aaafe
1aaafg

#115000
0aaafg

#120000
b1011 aaaev
b100 aaaew
b1011 aaaex
b1011 aaafc
b100 aaafd
b1011 aaafe
1aaafg

#125000
0aaafg

#130000
b1100 aaaev
b0 aaaew
b1100 aaaex
b1100 aaafc
b0 aaafd
b1100 aaafe
1aaafg

#135000
0aaafg

#140000
b1101 aaaev
b100 aaaew
b1101 aaaex
b1101 aaafc
b100 aaafd
b1101 aaafe
1aaafg

#145000
0aaafg

#150000
b1110 aaaev
b1 aaaew
b1110 aaaex
b1110 aaafc
b1 aaafd
b1110 aaafe
1aaafg

#155000
0aaafg

#160000
b1111 aaaev
b10 aaaew
b1111 aaaex
b1111 aaafc
b10 aaafd
b1111 aaafe
1aaafg

#165000
0aaafg

#170000
b10000 aaaev
b100 aaaew
b10000 aaaex
b10000 aaafc
b100 aaafd
b10000 aaafe
1aaafg

#175000
0aaafg

#180000
b10001 aaaev
b0 aaaew
b10001 aaaex
b10001 aaafc
b0 aaafd
b10001 aaafe
1aaafg

#185000
0aaafg

#190000
b10010 aaaev
b10010 aaaex
b10010 aaafc
b10010 aaafe
1aaafg

#195000
0aaafg

#200000
b10011 aaaev
b10011 aaaex
b10011 aaafc
b10011 aaafe
1aaafg

#205000
0aaafg

#210000
b10100 aaaev
b111 aaaew
b10100 aaaex
b10100 aaafc
b111 aaafd
b10100 aaafe
1aaafg

#215000
0aaafg

#220000
b11 aaaeu
b10101 aaaev
b1 aaaew
b10101 aaaex
b11 aaafb
b10101 aaafc
b1 aaafd
b10101 aaafe
1aaafg

#225000
0aaafg

#230000
b10 aaaeu
b10110 aaaev
b0 aaaew
b10110 aaaex
b10 aaafb
b10110 aaafc
b0 aaafd
b10110 aaafe
1aaafg

#235000
0aaafg

#240000
b1 aaaeu
b10111 aaaev
b1 aaaew
b10111 aaaex
b1 aaafb
b10111 aaafc
b1 aaafd
b10111 aaafe
1aaafg

#245000
0aaafg

#250000
b111 aaaeu
b11000 aaaev
b1001 aaaew
b11000 aaaex
b111 aaafb
b11000 aaafc
b1001 aaafd
b11000 aaafe
1aaafg

#255000
0aaafg

#260000
b1000 aaaeu
b11001 aaaev
b0 aaaew
b1000 aaafb
b11001 aaafc
b0 aaafd
1aaafg

#265000
0aaafg

#270000
b0 aaaeu
b11010 aaaev
b0 aaaex
b0 aaafb
b11010 aaafc
b0 aaafe
1aaafg

#275000
0aaafg

#280000
b110 aaaeu
b11011 aaaev
b10 aaaew
b110 aaafb
b11011 aaafc
b10 aaafd
1aaafg

#285000
0aaafg

#290000
b0 aaaeu
b11100 aaaev
b0 aaafb
b11100 aaafc
1aaafg

#295000
0aaafg

#300000
b11101 aaaev
b11101 aaafc
1aaafg

#305000
0aaafg

#310000
b11110 aaaev
b11110 aaafc
1aaafg

#315000
0aaafg

#320000
b11 aaaeu
b11111 aaaev
b11 aaafb
b11111 aaafc
1aaafg

#325000
0aaafg

#330000
b10 aaaeu
b100000 aaaev
b10 aaafb
b100000 aaafc
1aaafg

#335000
0aaafg

#340000
b1 aaaeu
b100001 aaaev
b1 aaafb
b100001 aaafc
1aaafg

#345000
0aaafg

#350000
b111 aaaeu
b100010 aaaev
b111 aaafb
b100010 aaafc
1aaafg

#355000
0aaafg

#360000
b0 aaaeu
b100011 aaaev
b0 aaafb
b100011 aaafc
1aaafg

#365000
0aaafg

#370000
b1 aaaeu
b100100 aaaev
b1 aaafb
b100100 aaafc
1aaafg

#375000
0aaafg

#380000
b0 aaaeu
b100101 aaaev
b0 aaafb
b100101 aaafc
1aaafg

#385000
0aaafg

#390000
b100110 aaaev
b100110 aaafc
1aaafg

#395000
0aaafg

#400000
b100111 aaaev
b100111 aaafc
1aaafg

#405000
0aaafg

#410000
b1 aaaeu
b101000 aaaev
b1 aaafb
b101000 aaafc
1aaafg

#415000
0aaafg

#420000
b101001 aaaev
b101001 aaafc
1aaafg

#425000
0aaafg

#430000
b10 aaaeu
b101010 aaaev
b10 aaafb
b101010 aaafc
1aaafg

#435000
0aaafg

#440000
b1010 aaaeu
b101011 aaaev
b1010 aaafb
b101011 aaafc
1aaafg

#445000
0aaafg

#450000
b10 aaaeu
b101100 aaaev
b10 aaafb
b101100 aaafc
1aaafg

#455000
0aaafg

#460000
b0 aaaeu
b101101 aaaev
b0 aaafb
b101101 aaafc
1aaafg

#465000
0aaafg

#470000
b101110 aaaev
b101110 aaafc
1aaafg

#475000
0aaafg

#480000
b1 aaaeu
b101111 aaaev
b1 aaafb
b101111 aaafc
1aaafg

#485000
0aaafg

#490000
b110000 aaaev
b110000 aaafc
1aaafg

#495000
0aaafg

#500000
b0 aaaeu
b110001 aaaev
b0 aaafb
b110001 aaafc
1aaafg

#505000
0aaafg

#510000
b1 aaaeu
b110010 aaaev
b1 aaafb
b110010 aaafc
1aaafg

#515000
0aaafg

#520000
b100 aaaeu
b110011 aaaev
b100 aaafb
b110011 aaafc
1aaafg

#525000
0aaafg

#530000
b11 aaaeu
b110100 aaaev
b11 aaafb
b110100 aaafc
1aaafg

#535000
0aaafg

#540000
b0 aaaeu
b110101 aaaev
b0 aaafb
b110101 aaafc
1aaafg

#545000
0aaafg

#550000
b101 aaaeu
b110110 aaaev
b101 aaafb
b110110 aaafc
1aaafg

#555000
0aaafg

#560000
b110111 aaaev
b110111 aaafc
1aaafg

#565000
0aaafg

#570000
b0 aaaeu
b111000 aaaev
b0 aaafb
b111000 aaafc
1aaafg

#575000
0aaafg

#580000
b111001 aaaev
b111001 aaafc
1aaafg

#585000
0aaafg

#590000
b111010 aaaev
b111010 aaafc
1aaafg

#595000
0aaafg

#600000
b1 aaaeu
b111011 aaaev
b1 aaafb
b111011 aaafc
1aaafg

#605000
0aaafg

#610000
b10 aaaeu
b111100 aaaev
b10 aaafb
b111100 aaafc
1aaafg

#615000
0aaafg

#620000
b1 aaaeu
b111101 aaaev
b1 aaafb
b111101 aaafc
1aaafg

#625000
0aaafg

#630000
b110 aaaeu
b111110 aaaev
b110 aaafb
b111110 aaafc
1aaafg

#635000
0aaafg

#640000
b11 aaaeu
b111111 aaaev
b11 aaafb
b111111 aaafc
1aaafg

#645000
0aaafg

#650000
b1 aaaeu
b1000000 aaaev
b1 aaafb
b1000000 aaafc
1aaafg

#655000
0aaafg

#660000
b101 aaaeu
b1000001 aaaev
b101 aaafb
b1000001 aaafc
1aaafg

#665000
0aaafg

#670000
b1000 aaaeu
b1000010 aaaev
b1000 aaafb
b1000010 aaafc
1aaafg

#675000
0aaafg

#680000
b11 aaaeu
b1000011 aaaev
b11 aaafb
b1000011 aaafc
1aaafg

#685000
0aaafg

#690000
b0 aaaeu
b1000100 aaaev
b0 aaafb
b1000100 aaafc
1aaafg

#695000
0aaafg

#700000
b10 aaaeu
b1000101 aaaev
b10 aaafb
b1000101 aaafc
1aaafg

#705000
0aaafg

#710000
b11 aaaeu
b1000110 aaaev
b11 aaafb
b1000110 aaafc
1aaafg

#715000
0aaafg

#720000
b10 aaaeu
b1000111 aaaev
b10 aaafb
b1000111 aaafc
1aaafg

#725000
0aaafg

#730000
b0 aaaeu
b1001000 aaaev
b0 aaafb
b1001000 aaafc
1aaafg

#735000
0aaafg

#740000
b1001 aaaeu
b1001001 aaaev
b1001 aaafb
b1001001 aaafc
1aaafg

#745000
0aaafg

#750000
b1 aaaeu
b1001010 aaaev
b1 aaafb
b1001010 aaafc
1aaafg

#755000
0aaafg

#760000
b0 aaaeu
b1001011 aaaev
b0 aaafb
b1001011 aaafc
1aaafg

#765000
0aaafg

#770000
b1001100 aaaev
b1001100 aaafc
1aaafg

#775000
0aaafg

#780000
b1001101 aaaev
b1001101 aaafc
1aaafg

#785000
0aaafg

#790000
b10 aaaeu
b1001110 aaaev
b10 aaafb
b1001110 aaafc
1aaafg

#795000
0aaafg

#800000
b11 aaaeu
b1001111 aaaev
b11 aaafb
b1001111 aaafc
1aaafg

#805000
0aaafg

#810000
b10 aaaeu
b1010000 aaaev
b10 aaafb
b1010000 aaafc
1aaafg

#815000
0aaafg

#820000
b1010001 aaaev
b1010001 aaafc
1aaafg

#825000
0aaafg

#830000
b1 aaaeu
b1010010 aaaev
b1 aaafb
b1010010 aaafc
1aaafg

#835000
0aaafg

#840000
b0 aaaeu
b1010011 aaaev
b0 aaafb
b1010011 aaafc
1aaafg

#845000
0aaafg

#850000
b1010100 aaaev
b1010100 aaafc
1aaafg

#855000
0aaafg

#860000
b1 aaaeu
b1010101 aaaev
b1 aaafb
b1010101 aaafc
1aaafg

#865000
0aaafg

#870000
b0 aaaeu
b1010110 aaaev
b0 aaafb
b1010110 aaafc
1aaafg

#875000
0aaafg

#880000
b10 aaaeu
b1010111 aaaev
b10 aaafb
b1010111 aaafc
1aaafg

#885000
0aaafg

#890000
b1 aaaeu
b1011000 aaaev
b1 aaafb
b1011000 aaafc
1aaafg

#895000
0aaafg

#900000
b0 aaaeu
b1011001 aaaev
b0 aaafb
b1011001 aaafc
1aaafg

#905000
0aaafg

#910000
b10 aaaeu
b1011010 aaaev
b10 aaafb
b1011010 aaafc
1aaafg

#915000
0aaafg

#920000
b0 aaaeu
b1011011 aaaev
b0 aaafb
b1011011 aaafc
1aaafg

#925000
0aaafg

#930000
b111 aaaeu
b1011100 aaaev
b111 aaafb
b1011100 aaafc
1aaafg

#935000
0aaafg

#940000
b1 aaaeu
b1011101 aaaev
b1 aaafb
b1011101 aaafc
1aaafg

#945000
0aaafg

#950000
b1011110 aaaev
b1011110 aaafc
1aaafg

#955000
0aaafg

#960000
b0 aaaeu
b1011111 aaaev
b0 aaafb
b1011111 aaafc
1aaafg

#965000
0aaafg

#970000
b1100000 aaaev
b1100000 aaafc
1aaafg

#975000
0aaafg

#980000
b1 aaaeu
b1100001 aaaev
b1 aaafb
b1100001 aaafc
1aaafg

#985000
0aaafg

#990000
b100 aaaeu
b1100010 aaaev
b100 aaafb
b1100010 aaafc
1aaafg

#995000
0aaafg

#1000000
b1 aaaeu
b1100011 aaaev
b1 aaafb
b1100011 aaafc
1aaafg

#1005000
0aaafg

#1010000
b100 aaaeu
b1100100 aaaev
b100 aaafb
b1100100 aaafc
1aaafg

#1015000
0aaafg

#1020000
b11 aaaeu
b1100101 aaaev
b11 aaafb
b1100101 aaafc
1aaafg

#1025000
0aaafg

#1030000
b0 aaaeu
b1100110 aaaev
b0 aaafb
b1100110 aaafc
1aaafg

#1035000
0aaafg

#1040000
b1 aaaeu
b1100111 aaaev
b1 aaafb
b1100111 aaafc
1aaafg

#1045000
0aaafg

#1050000
b0 aaaeu
b1101000 aaaev
b0 aaafb
b1101000 aaafc
1aaafg

#1055000
0aaafg

#1060000
b1 aaaeu
b1101001 aaaev
b1 aaafb
b1101001 aaafc
1aaafg

#1065000
0aaafg

#1070000
b0 aaaeu
b1101010 aaaev
b0 aaafb
b1101010 aaafc
1aaafg

#1075000
0aaafg

#1080000
b11 aaaeu
b1101011 aaaev
b11 aaafb
b1101011 aaafc
1aaafg

#1085000
0aaafg

#1090000
b1 aaaeu
b1101100 aaaev
b1 aaafb
b1101100 aaafc
1aaafg

#1095000
0aaafg

#1100000
b101 aaaeu
b1101101 aaaev
b101 aaafb
b1101101 aaafc
1aaafg

#1105000
0aaafg

#1110000
b1 aaaeu
b1101110 aaaev
b1 aaafb
b1101110 aaafc
1aaafg

#1115000
0aaafg

#1120000
b10 aaaeu
b1101111 aaaev
b10 aaafb
b1101111 aaafc
1aaafg

#1125000
0aaafg

#1130000
b100 aaaeu
b1110000 aaaev
b100 aaafb
b1110000 aaafc
1aaafg

#1135000
0aaafg

#1140000
b111 aaaeu
b1110001 aaaev
b111 aaafb
b1110001 aaafc
1aaafg

#1145000
0aaafg

#1150000
b0 aaaeu
b1110010 aaaev
b0 aaafb
b1110010 aaafc
1aaafg

#1155000
0aaafg

#1160000
b1110011 aaaev
b1110011 aaafc
1aaafg

#1165000
0aaafg

#1170000
b11 aaaeu
b1110100 aaaev
b11 aaafb
b1110100 aaafc
1aaafg

#1175000
0aaafg

#1180000
b1110101 aaaev
b1110101 aaafc
1aaafg

#1185000
0aaafg

#1190000
b1110110 aaaev
b1110110 aaafc
1aaafg

#1195000
0aaafg

#1200000
b10 aaaeu
b1110111 aaaev
b10 aaafb
b1110111 aaafc
1aaafg

#1205000
0aaafg

#1210000
b1000 aaaeu
b1111000 aaaev
b1000 aaafb
b1111000 aaafc
1aaafg

#1215000
0aaafg

#1220000
b10 aaaeu
b1111001 aaaev
b10 aaafb
b1111001 aaafc
1aaafg

#1225000
0aaafg

#1230000
b1111010 aaaev
b1111010 aaafc
1aaafg

#1235000
0aaafg

#1240000
b1111011 aaaev
b1111011 aaafc
1aaafg

#1245000
0aaafg

#1250000
b0 aaaeu
b1111100 aaaev
b0 aaafb
b1111100 aaafc
1aaafg

#1255000
0aaafg

#1260000
b1111101 aaaev
b1111101 aaafc
1aaafg

#1265000
0aaafg

#1270000
b10 aaaeu
b1111110 aaaev
b10 aaafb
b1111110 aaafc
1aaafg

#1275000
0aaafg

#1280000
b0 aaaeu
b1111111 aaaev
b0 aaafb
b1111111 aaafc
1aaafg

#1285000
0aaafg

#1290000
b10000000 aaaev
b10000000 aaafc
1aaafg

#1295000
0aaafg

#1300000
b1 aaaeu
b10000001 aaaev
b1 aaafb
b10000001 aaafc
1aaafg

#1305000
0aaafg

#1310000
b10000010 aaaev
b10000010 aaafc
1aaafg

#1315000
0aaafg

#1320000
b10 aaaeu
b10000011 aaaev
b10 aaafb
b10000011 aaafc
1aaafg

#1325000
0aaafg

#1330000
b1 aaaeu
b10000100 aaaev
b1 aaafb
b10000100 aaafc
1aaafg

#1335000
0aaafg

#1340000
b0 aaaeu
b10000101 aaaev
b0 aaafb
b10000101 aaafc
1aaafg

#1345000
0aaafg

#1350000
b10000110 aaaev
b10000110 aaafc
1aaafg

#1355000
0aaafg

#1360000
b1 aaaeu
b10000111 aaaev
b1 aaafb
b10000111 aaafc
1aaafg

#1365000
0aaafg

#1370000
b10001000 aaaev
b10001000 aaafc
1aaafg

#1375000
0aaafg

#1380000
b10001001 aaaev
b10001001 aaafc
1aaafg

#1385000
0aaafg

#1390000
b10001010 aaaev
b10001010 aaafc
1aaafg

#1395000
0aaafg

#1400000
b10001011 aaaev
b10001011 aaafc
1aaafg

#1405000
0aaafg

#1410000
b10001100 aaaev
b10001100 aaafc
1aaafg

#1415000
0aaafg

#1420000
b10001101 aaaev
b10001101 aaafc
1aaafg

#1425000
0aaafg

#1430000
b10001110 aaaev
b10001110 aaafc
1aaafg

#1435000
0aaafg

#1440000
b10001111 aaaev
b10001111 aaafc
1aaafg

#1445000
0aaafg

#1450000
b0 aaaeu
b10010000 aaaev
b0 aaafb
b10010000 aaafc
1aaafg

#1455000
0aaafg

#1460000
b11 aaaeu
b10010001 aaaev
b11 aaafb
b10010001 aaafc
1aaafg

#1465000
0aaafg

#1470000
b1 aaaeu
b10010010 aaaev
b1 aaafb
b10010010 aaafc
1aaafg

#1475000
0aaafg

#1480000
b101 aaaeu
b10010011 aaaev
b101 aaafb
b10010011 aaafc
1aaafg

#1485000
0aaafg

#1490000
b0 aaaeu
b10010100 aaaev
b0 aaafb
b10010100 aaafc
1aaafg

#1495000
0aaafg

#1500000
b10 aaaeu
b10010101 aaaev
b10 aaafb
b10010101 aaafc
1aaafg

#1505000
0aaafg

#1510000
b11 aaaeu
b10010110 aaaev
b11 aaafb
b10010110 aaafc
1aaafg

#1515000
0aaafg

#1520000
b101 aaaeu
b10010111 aaaev
b101 aaafb
b10010111 aaafc
1aaafg

#1525000
0aaafg

#1530000
b0 aaaeu
b10011000 aaaev
b0 aaafb
b10011000 aaafc
1aaafg

#1535000
0aaafg

#1540000
b10011001 aaaev
b10011001 aaafc
1aaafg

#1545000
0aaafg

#1550000
b10011010 aaaev
b10011010 aaafc
1aaafg

#1555000
0aaafg

#1560000
b10011011 aaaev
b10011011 aaafc
1aaafg

#1565000
0aaafg

#1570000
b1 aaaeu
b10011100 aaaev
b1 aaafb
b10011100 aaafc
1aaafg

#1575000
0aaafg

#1580000
b11 aaaeu
b10011101 aaaev
b11 aaafb
b10011101 aaafc
1aaafg

#1585000
0aaafg

#1590000
b101 aaaeu
b10011110 aaaev
b101 aaafb
b10011110 aaafc
1aaafg

#1595000
0aaafg

#1600000
b11 aaaeu
b10011111 aaaev
b11 aaafb
b10011111 aaafc
1aaafg

#1605000
0aaafg

#1610000
b10100000 aaaev
b10100000 aaafc
1aaafg

#1615000
0aaafg

#1620000
b1 aaaeu
b10100001 aaaev
b1 aaafb
b10100001 aaafc
1aaafg

#1625000
0aaafg

#1630000
b10 aaaeu
b10100010 aaaev
b10 aaafb
b10100010 aaafc
1aaafg

#1635000
0aaafg

#1640000
b0 aaaeu
b10100011 aaaev
b0 aaafb
b10100011 aaafc
1aaafg

#1645000
0aaafg

#1650000
b1 aaaeu
b10100100 aaaev
b1 aaafb
b10100100 aaafc
1aaafg

#1655000
0aaafg

#1660000
b11 aaaeu
b10100101 aaaev
b11 aaafb
b10100101 aaafc
1aaafg

#1665000
0aaafg

#1670000
b101 aaaeu
b10100110 aaaev
b101 aaafb
b10100110 aaafc
1aaafg

#1675000
0aaafg

#1680000
b111 aaaeu
b10100111 aaaev
b111 aaafb
b10100111 aaafc
1aaafg

#1685000
0aaafg

#1690000
b1000 aaaeu
b10101000 aaaev
b1000 aaafb
b10101000 aaafc
1aaafg

#1695000
0aaafg

#1700000
b1 aaaeu
b10101001 aaaev
b1 aaafb
b10101001 aaafc
1aaafg

#1705000
0aaafg

#1710000
b0 aaaeu
b10101010 aaaev
b0 aaafb
b10101010 aaafc
1aaafg

#1715000
0aaafg

#1720000
b10101011 aaaev
b10101011 aaafc
1aaafg

#1725000
0aaafg

#1730000
b10101100 aaaev
b10101100 aaafc
1aaafg

#1735000
0aaafg

#1740000
b10101101 aaaev
b10101101 aaafc
1aaafg

#1745000
0aaafg

#1750000
b10101110 aaaev
b10101110 aaafc
1aaafg

#1755000
0aaafg

#1760000
b1 aaaeu
b10101111 aaaev
b1 aaafb
b10101111 aaafc
1aaafg

#1765000
0aaafg

