LowEyeriss_v0919/Low_Eyeriss.vcd
$date
     Jul 18, 2021       20:19:57
$end

$version
 SystemC 2.3.4_pub_rev_20191203-Accellera --- May 20 2021 14:44:35
$end

$timescale
     1 ps
$end

$scope module SystemC $end
$scope module low_eyeriss_i $end
$var wire    1  aaaaa  in_vld       $end
$var wire    8  aaaab  w_wdata(0) [7:0]  $end
$var wire    8  aaaac  w_wdata(1) [7:0]  $end
$var wire    8  aaaad  w_wdata(2) [7:0]  $end
$var wire    8  aaaae  ifmap_wdata(0) [7:0]  $end
$var wire    8  aaaaf  ifmap_wdata(1) [7:0]  $end
$var wire    8  aaaag  ifmap_wdata(2) [7:0]  $end
$var wire    8  aaaah  ifmap_wdata(3) [7:0]  $end
$var wire    8  aaaai  ifmap_wdata(4) [7:0]  $end
$var wire    1  aaaaj  enable       $end
$var wire    1  aaaak  in_vld_PE       $end
$var wire    8  aaaal  weight_out_PE(0)(0) [7:0]  $end
$var wire    8  aaaam  ifmap_out_PE(0)(0) [7:0]  $end
$var wire   12  aaaan  ofmap_out(0)(0) [11:0]  $end
$var wire    1  aaaes  layer_done       $end
$scope module glb_i $end
$var wire    1  aaaao  channel_done       $end
$var wire    8  aaaap  ofmap_channel [7:0]  $end
$var wire   12  aaadz  ofmap_result [11:0]  $end
$var wire    1  aaaea  layer_done       $end
$var wire   12  aaaeb  ofmap_out(2)(0) [11:0]  $end
$var wire   12  aaaec  ofmap_out(1)(0) [11:0]  $end
$var wire   12  aaaed  ofmap_out(0)(0) [11:0]  $end
$var wire    1  aaaee  out_vld(0)(0)       $end
$var wire    8  aaaef  ifmap_wdata(4) [7:0]  $end
$var wire    8  aaaeg  ifmap_wdata(3) [7:0]  $end
$var wire    8  aaaeh  ifmap_wdata(2) [7:0]  $end
$var wire    8  aaaei  ifmap_wdata(1) [7:0]  $end
$var wire    8  aaaej  ifmap_wdata(0) [7:0]  $end
$var wire    8  aaaek  w_wdata(2) [7:0]  $end
$var wire    8  aaael  w_wdata(1) [7:0]  $end
$var wire    8  aaaem  w_wdata(0) [7:0]  $end
$var wire    1  aaaen  in_vld       $end
$var wire    8  aaaeo  ifmap_rdata [7:0]  $end
$var wire   12  aaaep  addr_ifmpa_in [11:0]  $end
$var wire    8  aaaeq  w_rdata [7:0]  $end
$var wire   12  aaaer  addr_w_in [11:0]  $end
$upscope $end
$scope module pe_array_i $end
$var wire   12  aaacu  ofmap_out(0)(0) [11:0]  $end
$var wire    1  aaacv  out_vld(0)(0)       $end
$var wire    8  aaacw  ifmap_out_PE(2)(1) [7:0]  $end
$var wire    8  aaacx  ifmap_out_PE(2)(0) [7:0]  $end
$var wire    8  aaacy  ifmap_out_PE(1)(1) [7:0]  $end
$var wire    8  aaacz  ifmap_out_PE(1)(0) [7:0]  $end
$var wire    8  aaada  ifmap_out_PE(0)(1) [7:0]  $end
$var wire    8  aaadb  ifmap_out_PE(0)(0) [7:0]  $end
$var wire    8  aaadc  weight_out_PE(0)(0) [7:0]  $end
$var wire    1  aaadd  in_vld_PE       $end
$var wire    1  aaade  enable       $end
$scope module PE_0_1 $end
$var wire   12  aaaaz  ofmap_out [11:0]  $end
$var wire    8  aaaba  ifmap_in [7:0]  $end
$var wire    8  aaabb  w_in [7:0]  $end
$var wire    1  aaabc  out_vld       $end
$var wire    1  aaabd  in_vld       $end
$var wire    1  aaabe  enable       $end
$upscope $end
$scope module PE_1_0 $end
$var wire   12  aaaco  ofmap_out [11:0]  $end
$var wire    8  aaacp  ifmap_in [7:0]  $end
$var wire    8  aaacq  w_in [7:0]  $end
$var wire    1  aaacr  out_vld       $end
$var wire    1  aaacs  in_vld       $end
$var wire    1  aaact  enable       $end
$scope module mac_i $end
$var wire   12  aaacd  psum_tmp_MACtoReg [11:0]  $end
$var wire    8  aaace  psum_tmp_RegtoMAC [7:0]  $end
$var wire    8  aaacf  ifmap [7:0]  $end
$var wire    8  aaacg  weight [7:0]  $end
$upscope $end
$scope module regfile_i $end
$var wire    8  aaach  psum_tmp_RegtoMAC [7:0]  $end
$var wire    8  aaaci  in [7:0]  $end
$var wire    8  aaacj  w [7:0]  $end
$var wire   12  aaack  psum_tmp_MACtoReg [11:0]  $end
$var wire    8  aaacl  ifmap_in [7:0]  $end
$var wire    8  aaacm  w_in [7:0]  $end
$var wire    1  aaacn  in_vld       $end
$upscope $end
$upscope $end
$scope module PE_1_1 $end
$var wire   12  aaaav  ofmap_out [11:0]  $end
$var wire    8  aaaaw  ifmap_in [7:0]  $end
$var wire    8  aaaax  w_in [7:0]  $end
$var wire    1  aaaay  out_vld       $end
$upscope $end
$scope module PE_2_0 $end
$var wire   12  aaabx  ofmap_out [11:0]  $end
$var wire    8  aaaby  ifmap_in [7:0]  $end
$var wire    8  aaabz  w_in [7:0]  $end
$var wire    1  aaaca  out_vld       $end
$var wire    1  aaacb  in_vld       $end
$var wire    1  aaacc  enable       $end
$upscope $end
$scope module PE_2_1 $end
$var wire   12  aaaar  ofmap_out [11:0]  $end
$var wire    8  aaaas  ifmap_in [7:0]  $end
$var wire    8  aaaat  w_in [7:0]  $end
$var wire    1  aaaau  out_vld       $end
$upscope $end
$scope module PE_5_0 $end
$var wire   12  aaabr  ofmap_out [11:0]  $end
$var wire    8  aaabs  ifmap_in [7:0]  $end
$var wire    8  aaabt  w_in [7:0]  $end
$var wire    1  aaabu  out_vld       $end
$var wire    1  aaabv  in_vld       $end
$var wire    1  aaabw  enable       $end
$upscope $end
$scope module PE_6_0 $end
$var wire   12  aaabl  ofmap_out [11:0]  $end
$var wire    8  aaabm  ifmap_in [7:0]  $end
$var wire    8  aaabn  w_in [7:0]  $end
$var wire    1  aaabo  out_vld       $end
$var wire    1  aaabp  in_vld       $end
$var wire    1  aaabq  enable       $end
$upscope $end
$scope module PE_9_0 $end
$var wire   12  aaabf  ofmap_out [11:0]  $end
$var wire    8  aaabg  ifmap_in [7:0]  $end
$var wire    8  aaabh  w_in [7:0]  $end
$var wire    1  aaabi  out_vld       $end
$var wire    1  aaabj  in_vld       $end
$var wire    1  aaabk  enable       $end
$upscope $end
$upscope $end
$scope module scheduler_i $end
$var wire    1  aaaaq  start_sche       $end
$var wire    8  aaadf  ifmap_out_PE(2)(1) [7:0]  $end
$var wire    8  aaadg  ifmap_out_PE(2)(0) [7:0]  $end
$var wire    8  aaadh  ifmap_out_PE(1)(1) [7:0]  $end
$var wire    8  aaadi  ifmap_out_PE(1)(0) [7:0]  $end
$var wire    8  aaadj  ifmap_out_PE(0)(1) [7:0]  $end
$var wire    8  aaadk  ifmap_out_PE(0)(0) [7:0]  $end
$var wire    8  aaadl  weight_out_PE(2)(0) [7:0]  $end
$var wire    8  aaadm  weight_out_PE(1)(0) [7:0]  $end
$var wire    8  aaadn  weight_out_PE(0)(0) [7:0]  $end
$var wire    1  aaado  in_vld_PE       $end
$var wire    1  aaadp  enable       $end
$var wire    8  aaadq  ifmap(4) [7:0]  $end
$var wire    8  aaadr  ifmap(3) [7:0]  $end
$var wire    8  aaads  ifmap(2) [7:0]  $end
$var wire    8  aaadt  ifmap(1) [7:0]  $end
$var wire    8  aaadu  ifmap(0) [7:0]  $end
$var wire    8  aaadv  weight(2) [7:0]  $end
$var wire    8  aaadw  weight(1) [7:0]  $end
$var wire    8  aaadx  weight(0) [7:0]  $end
$var wire    1  aaady  in_vld       $end
$upscope $end
$upscope $end
$scope module tb_i $end
$var wire   12  aaaet  ofmap_result [11:0]  $end
$var wire    1  aaaeu  layer_done       $end
$var wire    8  aaaev  ifmap_rdata [7:0]  $end
$var wire   12  aaaew  addr_ifmpa_in [11:0]  $end
$var wire    8  aaaex  w_rdata [7:0]  $end
$var wire   12  aaaey  addr_w_in [11:0]  $end
$var wire    1  aaaez  rst       $end
$var wire    1  aaafa  clk       $end
$upscope $end
$upscope $end
$enddefinitions  $end

$comment
All initial values are dumped below at time 0 sec = 0 timescale units.
$end

$dumpvars
0aaaaa
b0 aaaab
b0 aaaac
b0 aaaad
b0 aaaae
b0 aaaaf
b0 aaaag
b0 aaaah
b0 aaaai
0aaaaj
0aaaak
b0 aaaal
b0 aaaam
b0 aaaan
0aaaao
b0 aaaap
0aaaaq
b0 aaaar
b0 aaaas
b0 aaaat
0aaaau
b0 aaaav
b0 aaaaw
b0 aaaax
0aaaay
b0 aaaaz
b0 aaaba
b0 aaabb
0aaabc
0aaabd
0aaabe
b0 aaabf
b0 aaabg
b0 aaabh
0aaabi
0aaabj
0aaabk
b0 aaabl
b0 aaabm
b0 aaabn
0aaabo
0aaabp
0aaabq
b0 aaabr
b0 aaabs
b0 aaabt
0aaabu
0aaabv
0aaabw
b0 aaabx
b0 aaaby
b0 aaabz
0aaaca
0aaacb
0aaacc
b0 aaacd
b0 aaace
b0 aaacf
b0 aaacg
b0 aaach
b0 aaaci
b0 aaacj
b0 aaack
b0 aaacl
b0 aaacm
0aaacn
b0 aaaco
b0 aaacp
b0 aaacq
0aaacr
0aaacs
0aaact
b0 aaacu
0aaacv
b0 aaacw
b0 aaacx
b0 aaacy
b0 aaacz
b0 aaada
b0 aaadb
b0 aaadc
0aaadd
0aaade
b0 aaadf
b0 aaadg
b0 aaadh
b0 aaadi
b0 aaadj
b0 aaadk
b0 aaadl
b0 aaadm
b0 aaadn
0aaado
0aaadp
b0 aaadq
b0 aaadr
b0 aaads
b0 aaadt
b0 aaadu
b0 aaadv
b0 aaadw
b0 aaadx
0aaady
b0 aaadz
0aaaea
b0 aaaeb
b0 aaaec
b0 aaaed
0aaaee
b0 aaaef
b0 aaaeg
b0 aaaeh
b0 aaaei
b0 aaaej
b0 aaaek
b0 aaael
b0 aaaem
0aaaen
b0 aaaeo
b0 aaaep
b0 aaaeq
b0 aaaer
0aaaes
b0 aaaet
0aaaeu
b0 aaaev
b0 aaaew
b0 aaaex
b0 aaaey
1aaaez
1aaafa
$end

#5000
0aaafa

#10000
0aaaez
1aaafa

#15000
0aaafa

#20000
b1 aaaep
b10 aaaeq
b1 aaaer
b1 aaaew
b10 aaaex
b1 aaaey
1aaafa

#25000
0aaafa

#30000
b10 aaaep
b10 aaaer
b10 aaaew
b10 aaaey
1aaafa

#35000
0aaafa

#40000
b11 aaaep
b11 aaaeq
b11 aaaer
b11 aaaew
b11 aaaex
b11 aaaey
1aaafa

#45000
0aaafa

#50000
b100 aaaep
b1 aaaeq
b100 aaaer
b100 aaaew
b1 aaaex
b100 aaaey
1aaafa

#55000
0aaafa

#60000
b101 aaaep
b0 aaaeq
b101 aaaer
b101 aaaew
b0 aaaex
b101 aaaey
1aaafa

#65000
0aaafa

#70000
b110 aaaep
b1 aaaeq
b110 aaaer
b110 aaaew
b1 aaaex
b110 aaaey
1aaafa

#75000
0aaafa

#80000
b111 aaaep
b11 aaaeq
b111 aaaer
b111 aaaew
b11 aaaex
b111 aaaey
1aaafa

#85000
0aaafa

#90000
b1000 aaaep
b1 aaaeq
b1000 aaaer
b1000 aaaew
b1 aaaex
b1000 aaaey
1aaafa

#95000
0aaafa

#100000
b1001 aaaep
b101 aaaeq
b1001 aaaer
b1001 aaaew
b101 aaaex
b1001 aaaey
1aaafa

#105000
0aaafa

#110000
b1010 aaaep
b0 aaaeq
b1010 aaaer
b1010 aaaew
b0 aaaex
b1010 aaaey
1aaafa

#115000
0aaafa

#120000
b1011 aaaep
b100 aaaeq
b1011 aaaer
b1011 aaaew
b100 aaaex
b1011 aaaey
1aaafa

#125000
0aaafa

#130000
b1100 aaaep
b0 aaaeq
b1100 aaaer
b1100 aaaew
b0 aaaex
b1100 aaaey
1aaafa

#135000
0aaafa

#140000
b1101 aaaep
b100 aaaeq
b1101 aaaer
b1101 aaaew
b100 aaaex
b1101 aaaey
1aaafa

#145000
0aaafa

#150000
b1110 aaaep
b1 aaaeq
b1110 aaaer
b1110 aaaew
b1 aaaex
b1110 aaaey
1aaafa

#155000
0aaafa

#160000
b1111 aaaep
b10 aaaeq
b1111 aaaer
b1111 aaaew
b10 aaaex
b1111 aaaey
1aaafa

#165000
0aaafa

#170000
b10000 aaaep
b100 aaaeq
b10000 aaaer
b10000 aaaew
b100 aaaex
b10000 aaaey
1aaafa

#175000
0aaafa

#180000
b10001 aaaep
b0 aaaeq
b10001 aaaer
b10001 aaaew
b0 aaaex
b10001 aaaey
1aaafa

#185000
0aaafa

#190000
b10010 aaaep
b10010 aaaer
b10010 aaaew
b10010 aaaey
1aaafa

#195000
0aaafa

#200000
b10011 aaaep
b10011 aaaer
b10011 aaaew
b10011 aaaey
1aaafa

#205000
0aaafa

#210000
b10100 aaaep
b111 aaaeq
b10100 aaaer
b10100 aaaew
b111 aaaex
b10100 aaaey
1aaafa

#215000
0aaafa

#220000
b11 aaaeo
b10101 aaaep
b1 aaaeq
b10101 aaaer
b11 aaaev
b10101 aaaew
b1 aaaex
b10101 aaaey
1aaafa

#225000
0aaafa

#230000
b10 aaaeo
b10110 aaaep
b0 aaaeq
b10110 aaaer
b10 aaaev
b10110 aaaew
b0 aaaex
b10110 aaaey
1aaafa

#235000
0aaafa

#240000
b1 aaaeo
b10111 aaaep
b1 aaaeq
b10111 aaaer
b1 aaaev
b10111 aaaew
b1 aaaex
b10111 aaaey
1aaafa

#245000
0aaafa

#250000
b111 aaaeo
b11000 aaaep
b1001 aaaeq
b11000 aaaer
b111 aaaev
b11000 aaaew
b1001 aaaex
b11000 aaaey
1aaafa

#255000
0aaafa

#260000
b1000 aaaeo
b11001 aaaep
b0 aaaeq
b1000 aaaev
b11001 aaaew
b0 aaaex
1aaafa

#265000
0aaafa

#270000
b0 aaaeo
b11010 aaaep
b0 aaaer
b0 aaaev
b11010 aaaew
b0 aaaey
1aaafa

#275000
0aaafa

#280000
b110 aaaeo
b11011 aaaep
b10 aaaeq
b110 aaaev
b11011 aaaew
b10 aaaex
1aaafa

#285000
0aaafa

#290000
b0 aaaeo
b11100 aaaep
b0 aaaev
b11100 aaaew
1aaafa

#295000
0aaafa

#300000
b11101 aaaep
b11101 aaaew
1aaafa

#305000
0aaafa

#310000
b11110 aaaep
b11110 aaaew
1aaafa

#315000
0aaafa

#320000
b11 aaaeo
b11111 aaaep
b11 aaaev
b11111 aaaew
1aaafa

#325000
0aaafa

#330000
b10 aaaeo
b100000 aaaep
b10 aaaev
b100000 aaaew
1aaafa

#335000
0aaafa

#340000
b1 aaaeo
b100001 aaaep
b1 aaaev
b100001 aaaew
1aaafa

#345000
0aaafa

#350000
b111 aaaeo
b100010 aaaep
b111 aaaev
b100010 aaaew
1aaafa

#355000
0aaafa

#360000
b0 aaaeo
b100011 aaaep
b0 aaaev
b100011 aaaew
1aaafa

#365000
0aaafa

#370000
b1 aaaeo
b100100 aaaep
b1 aaaev
b100100 aaaew
1aaafa

#375000
0aaafa

#380000
b0 aaaeo
b100101 aaaep
b0 aaaev
b100101 aaaew
1aaafa

#385000
0aaafa

#390000
b100110 aaaep
b100110 aaaew
1aaafa

#395000
0aaafa

#400000
b100111 aaaep
b100111 aaaew
1aaafa

#405000
0aaafa

#410000
b1 aaaeo
b101000 aaaep
b1 aaaev
b101000 aaaew
1aaafa

#415000
0aaafa

#420000
b101001 aaaep
b101001 aaaew
1aaafa

#425000
0aaafa

#430000
b10 aaaeo
b101010 aaaep
b10 aaaev
b101010 aaaew
1aaafa

#435000
0aaafa

#440000
b1010 aaaeo
b101011 aaaep
b1010 aaaev
b101011 aaaew
1aaafa

#445000
0aaafa

#450000
b10 aaaeo
b101100 aaaep
b10 aaaev
b101100 aaaew
1aaafa

#455000
0aaafa

#460000
b0 aaaeo
b101101 aaaep
b0 aaaev
b101101 aaaew
1aaafa

#465000
0aaafa

#470000
b101110 aaaep
b101110 aaaew
1aaafa

#475000
0aaafa

#480000
b1 aaaeo
b101111 aaaep
b1 aaaev
b101111 aaaew
1aaafa

#485000
0aaafa

#490000
b110000 aaaep
b110000 aaaew
1aaafa

#495000
0aaafa

#500000
b0 aaaeo
b110001 aaaep
b0 aaaev
b110001 aaaew
1aaafa

#505000
0aaafa

#510000
b1 aaaeo
b110010 aaaep
b1 aaaev
b110010 aaaew
1aaafa

#515000
0aaafa

#520000
b100 aaaeo
b110011 aaaep
b100 aaaev
b110011 aaaew
1aaafa

#525000
0aaafa

#530000
b11 aaaeo
b110100 aaaep
b11 aaaev
b110100 aaaew
1aaafa

#535000
0aaafa

#540000
b0 aaaeo
b110101 aaaep
b0 aaaev
b110101 aaaew
1aaafa

#545000
0aaafa

#550000
b101 aaaeo
b110110 aaaep
b101 aaaev
b110110 aaaew
1aaafa

#555000
0aaafa

#560000
b110111 aaaep
b110111 aaaew
1aaafa

#565000
0aaafa

#570000
b0 aaaeo
b111000 aaaep
b0 aaaev
b111000 aaaew
1aaafa

#575000
0aaafa

#580000
b111001 aaaep
b111001 aaaew
1aaafa

#585000
0aaafa

#590000
b111010 aaaep
b111010 aaaew
1aaafa

#595000
0aaafa

#600000
b1 aaaeo
b111011 aaaep
b1 aaaev
b111011 aaaew
1aaafa

#605000
0aaafa

#610000
b10 aaaeo
b111100 aaaep
b10 aaaev
b111100 aaaew
1aaafa

#615000
0aaafa

#620000
b1 aaaeo
b111101 aaaep
b1 aaaev
b111101 aaaew
1aaafa

#625000
0aaafa

#630000
b110 aaaeo
b111110 aaaep
b110 aaaev
b111110 aaaew
1aaafa

#635000
0aaafa

#640000
b11 aaaeo
b111111 aaaep
b11 aaaev
b111111 aaaew
1aaafa

#645000
0aaafa

#650000
b1 aaaeo
b1000000 aaaep
b1 aaaev
b1000000 aaaew
1aaafa

#655000
0aaafa

#660000
b101 aaaeo
b1000001 aaaep
b101 aaaev
b1000001 aaaew
1aaafa

#665000
0aaafa

#670000
b1000 aaaeo
b1000010 aaaep
b1000 aaaev
b1000010 aaaew
1aaafa

#675000
0aaafa

#680000
b11 aaaeo
b1000011 aaaep
b11 aaaev
b1000011 aaaew
1aaafa

#685000
0aaafa

#690000
b0 aaaeo
b1000100 aaaep
b0 aaaev
b1000100 aaaew
1aaafa

#695000
0aaafa

#700000
b10 aaaeo
b1000101 aaaep
b10 aaaev
b1000101 aaaew
1aaafa

#705000
0aaafa

#710000
b11 aaaeo
b1000110 aaaep
b11 aaaev
b1000110 aaaew
1aaafa

#715000
0aaafa

#720000
b10 aaaeo
b1000111 aaaep
b10 aaaev
b1000111 aaaew
1aaafa

#725000
0aaafa

#730000
b0 aaaeo
b1001000 aaaep
b0 aaaev
b1001000 aaaew
1aaafa

#735000
0aaafa

#740000
b1001 aaaeo
b1001001 aaaep
b1001 aaaev
b1001001 aaaew
1aaafa

#745000
0aaafa

#750000
b1 aaaeo
b1001010 aaaep
b1 aaaev
b1001010 aaaew
1aaafa

#755000
0aaafa

#760000
b0 aaaeo
b1001011 aaaep
b0 aaaev
b1001011 aaaew
1aaafa

#765000
0aaafa

#770000
b1001100 aaaep
b1001100 aaaew
1aaafa

#775000
0aaafa

#780000
b1001101 aaaep
b1001101 aaaew
1aaafa

#785000
0aaafa

#790000
b10 aaaeo
b1001110 aaaep
b10 aaaev
b1001110 aaaew
1aaafa

#795000
0aaafa

#800000
b11 aaaeo
b1001111 aaaep
b11 aaaev
b1001111 aaaew
1aaafa

#805000
0aaafa

#810000
b10 aaaeo
b1010000 aaaep
b10 aaaev
b1010000 aaaew
1aaafa

#815000
0aaafa

#820000
b1010001 aaaep
b1010001 aaaew
1aaafa

#825000
0aaafa

#830000
b1 aaaeo
b1010010 aaaep
b1 aaaev
b1010010 aaaew
1aaafa

#835000
0aaafa

#840000
b0 aaaeo
b1010011 aaaep
b0 aaaev
b1010011 aaaew
1aaafa

#845000
0aaafa

#850000
b1010100 aaaep
b1010100 aaaew
1aaafa

#855000
0aaafa

#860000
b1 aaaeo
b1010101 aaaep
b1 aaaev
b1010101 aaaew
1aaafa

#865000
0aaafa

#870000
b0 aaaeo
b1010110 aaaep
b0 aaaev
b1010110 aaaew
1aaafa

#875000
0aaafa

#880000
b10 aaaeo
b1010111 aaaep
b10 aaaev
b1010111 aaaew
1aaafa

#885000
0aaafa

#890000
b1 aaaeo
b1011000 aaaep
b1 aaaev
b1011000 aaaew
1aaafa

#895000
0aaafa

#900000
b0 aaaeo
b1011001 aaaep
b0 aaaev
b1011001 aaaew
1aaafa

#905000
0aaafa

#910000
b10 aaaeo
b1011010 aaaep
b10 aaaev
b1011010 aaaew
1aaafa

#915000
0aaafa

#920000
b0 aaaeo
b1011011 aaaep
b0 aaaev
b1011011 aaaew
1aaafa

#925000
0aaafa

#930000
b111 aaaeo
b1011100 aaaep
b111 aaaev
b1011100 aaaew
1aaafa

#935000
0aaafa

#940000
b1 aaaeo
b1011101 aaaep
b1 aaaev
b1011101 aaaew
1aaafa

#945000
0aaafa

#950000
b1011110 aaaep
b1011110 aaaew
1aaafa

#955000
0aaafa

#960000
b0 aaaeo
b1011111 aaaep
b0 aaaev
b1011111 aaaew
1aaafa

#965000
0aaafa

#970000
b1100000 aaaep
b1100000 aaaew
1aaafa

#975000
0aaafa

#980000
b1 aaaeo
b1100001 aaaep
b1 aaaev
b1100001 aaaew
1aaafa

#985000
0aaafa

#990000
b100 aaaeo
b1100010 aaaep
b100 aaaev
b1100010 aaaew
1aaafa

#995000
0aaafa

#1000000
b1 aaaeo
b1100011 aaaep
b1 aaaev
b1100011 aaaew
1aaafa

#1005000
0aaafa

#1010000
b100 aaaeo
b1100100 aaaep
b100 aaaev
b1100100 aaaew
1aaafa

#1015000
0aaafa

#1020000
b11 aaaeo
b1100101 aaaep
b11 aaaev
b1100101 aaaew
1aaafa

#1025000
0aaafa

#1030000
b0 aaaeo
b1100110 aaaep
b0 aaaev
b1100110 aaaew
1aaafa

#1035000
0aaafa

#1040000
b1 aaaeo
b1100111 aaaep
b1 aaaev
b1100111 aaaew
1aaafa

#1045000
0aaafa

#1050000
b0 aaaeo
b1101000 aaaep
b0 aaaev
b1101000 aaaew
1aaafa

#1055000
0aaafa

#1060000
b1 aaaeo
b1101001 aaaep
b1 aaaev
b1101001 aaaew
1aaafa

#1065000
0aaafa

#1070000
b0 aaaeo
b1101010 aaaep
b0 aaaev
b1101010 aaaew
1aaafa

#1075000
0aaafa

#1080000
b11 aaaeo
b1101011 aaaep
b11 aaaev
b1101011 aaaew
1aaafa

#1085000
0aaafa

#1090000
b1 aaaeo
b1101100 aaaep
b1 aaaev
b1101100 aaaew
1aaafa

#1095000
0aaafa

#1100000
b101 aaaeo
b1101101 aaaep
b101 aaaev
b1101101 aaaew
1aaafa

#1105000
0aaafa

#1110000
b1 aaaeo
b1101110 aaaep
b1 aaaev
b1101110 aaaew
1aaafa

#1115000
0aaafa

#1120000
b10 aaaeo
b1101111 aaaep
b10 aaaev
b1101111 aaaew
1aaafa

#1125000
0aaafa

#1130000
b100 aaaeo
b1110000 aaaep
b100 aaaev
b1110000 aaaew
1aaafa

#1135000
0aaafa

#1140000
b111 aaaeo
b1110001 aaaep
b111 aaaev
b1110001 aaaew
1aaafa

#1145000
0aaafa

#1150000
b0 aaaeo
b1110010 aaaep
b0 aaaev
b1110010 aaaew
1aaafa

#1155000
0aaafa

#1160000
b1110011 aaaep
b1110011 aaaew
1aaafa

#1165000
0aaafa

#1170000
b11 aaaeo
b1110100 aaaep
b11 aaaev
b1110100 aaaew
1aaafa

#1175000
0aaafa

#1180000
b1110101 aaaep
b1110101 aaaew
1aaafa

#1185000
0aaafa

#1190000
b1110110 aaaep
b1110110 aaaew
1aaafa

#1195000
0aaafa

#1200000
b10 aaaeo
b1110111 aaaep
b10 aaaev
b1110111 aaaew
1aaafa

#1205000
0aaafa

#1210000
b1000 aaaeo
b1111000 aaaep
b1000 aaaev
b1111000 aaaew
1aaafa

#1215000
0aaafa

#1220000
b10 aaaeo
b1111001 aaaep
b10 aaaev
b1111001 aaaew
1aaafa

#1225000
0aaafa

#1230000
b1111010 aaaep
b1111010 aaaew
1aaafa

#1235000
0aaafa

#1240000
b1111011 aaaep
b1111011 aaaew
1aaafa

#1245000
0aaafa

#1250000
b0 aaaeo
b1111100 aaaep
b0 aaaev
b1111100 aaaew
1aaafa

#1255000
0aaafa

#1260000
b1111101 aaaep
b1111101 aaaew
1aaafa

#1265000
0aaafa

#1270000
b10 aaaeo
b1111110 aaaep
b10 aaaev
b1111110 aaaew
1aaafa

#1275000
0aaafa

#1280000
b0 aaaeo
b1111111 aaaep
b0 aaaev
b1111111 aaaew
1aaafa

#1285000
0aaafa

#1290000
b10000000 aaaep
b10000000 aaaew
1aaafa

#1295000
0aaafa

#1300000
b1 aaaeo
b10000001 aaaep
b1 aaaev
b10000001 aaaew
1aaafa

#1305000
0aaafa

#1310000
b10000010 aaaep
b10000010 aaaew
1aaafa

#1315000
0aaafa

#1320000
b10 aaaeo
b10000011 aaaep
b10 aaaev
b10000011 aaaew
1aaafa

#1325000
0aaafa

#1330000
b1 aaaeo
b10000100 aaaep
b1 aaaev
b10000100 aaaew
1aaafa

#1335000
0aaafa

#1340000
b0 aaaeo
b10000101 aaaep
b0 aaaev
b10000101 aaaew
1aaafa

#1345000
0aaafa

#1350000
b10000110 aaaep
b10000110 aaaew
1aaafa

#1355000
0aaafa

#1360000
b1 aaaeo
b10000111 aaaep
b1 aaaev
b10000111 aaaew
1aaafa

#1365000
0aaafa

#1370000
b10001000 aaaep
b10001000 aaaew
1aaafa

#1375000
0aaafa

#1380000
b10001001 aaaep
b10001001 aaaew
1aaafa

#1385000
0aaafa

#1390000
b10001010 aaaep
b10001010 aaaew
1aaafa

#1395000
0aaafa

#1400000
b10001011 aaaep
b10001011 aaaew
1aaafa

#1405000
0aaafa

#1410000
b10001100 aaaep
b10001100 aaaew
1aaafa

#1415000
0aaafa

#1420000
b10001101 aaaep
b10001101 aaaew
1aaafa

#1425000
0aaafa

#1430000
b10001110 aaaep
b10001110 aaaew
1aaafa

#1435000
0aaafa

#1440000
b10001111 aaaep
b10001111 aaaew
1aaafa

#1445000
0aaafa

#1450000
b0 aaaeo
b10010000 aaaep
b0 aaaev
b10010000 aaaew
1aaafa

#1455000
0aaafa

#1460000
b11 aaaeo
b10010001 aaaep
b11 aaaev
b10010001 aaaew
1aaafa

#1465000
0aaafa

#1470000
b1 aaaeo
b10010010 aaaep
b1 aaaev
b10010010 aaaew
1aaafa

#1475000
0aaafa

#1480000
b101 aaaeo
b10010011 aaaep
b101 aaaev
b10010011 aaaew
1aaafa

#1485000
0aaafa

#1490000
b0 aaaeo
b10010100 aaaep
b0 aaaev
b10010100 aaaew
1aaafa

#1495000
0aaafa

#1500000
b10 aaaeo
b10010101 aaaep
b10 aaaev
b10010101 aaaew
1aaafa

#1505000
0aaafa

#1510000
b11 aaaeo
b10010110 aaaep
b11 aaaev
b10010110 aaaew
1aaafa

#1515000
0aaafa

#1520000
b101 aaaeo
b10010111 aaaep
b101 aaaev
b10010111 aaaew
1aaafa

#1525000
0aaafa

#1530000
b0 aaaeo
b10011000 aaaep
b0 aaaev
b10011000 aaaew
1aaafa

#1535000
0aaafa

#1540000
b10011001 aaaep
b10011001 aaaew
1aaafa

#1545000
0aaafa

#1550000
b10011010 aaaep
b10011010 aaaew
1aaafa

#1555000
0aaafa

#1560000
b10011011 aaaep
b10011011 aaaew
1aaafa

#1565000
0aaafa

#1570000
b1 aaaeo
b10011100 aaaep
b1 aaaev
b10011100 aaaew
1aaafa

#1575000
0aaafa

#1580000
b11 aaaeo
b10011101 aaaep
b11 aaaev
b10011101 aaaew
1aaafa

#1585000
0aaafa

#1590000
b101 aaaeo
b10011110 aaaep
b101 aaaev
b10011110 aaaew
1aaafa

#1595000
0aaafa

#1600000
b11 aaaeo
b10011111 aaaep
b11 aaaev
b10011111 aaaew
1aaafa

#1605000
0aaafa

#1610000
b10100000 aaaep
b10100000 aaaew
1aaafa

#1615000
0aaafa

#1620000
b1 aaaeo
b10100001 aaaep
b1 aaaev
b10100001 aaaew
1aaafa

#1625000
0aaafa

#1630000
b10 aaaeo
b10100010 aaaep
b10 aaaev
b10100010 aaaew
1aaafa

#1635000
0aaafa

#1640000
b0 aaaeo
b10100011 aaaep
b0 aaaev
b10100011 aaaew
1aaafa

#1645000
0aaafa

#1650000
b1 aaaeo
b10100100 aaaep
b1 aaaev
b10100100 aaaew
1aaafa

#1655000
0aaafa

#1660000
b11 aaaeo
b10100101 aaaep
b11 aaaev
b10100101 aaaew
1aaafa

#1665000
0aaafa

#1670000
b101 aaaeo
b10100110 aaaep
b101 aaaev
b10100110 aaaew
1aaafa

#1675000
0aaafa

#1680000
b111 aaaeo
b10100111 aaaep
b111 aaaev
b10100111 aaaew
1aaafa

#1685000
0aaafa

#1690000
b1000 aaaeo
b10101000 aaaep
b1000 aaaev
b10101000 aaaew
1aaafa

#1695000
0aaafa

#1700000
b1 aaaeo
b10101001 aaaep
b1 aaaev
b10101001 aaaew
1aaafa

#1705000
0aaafa

#1710000
b0 aaaeo
b10101010 aaaep
b0 aaaev
b10101010 aaaew
1aaafa

#1715000
0aaafa

#1720000
b10101011 aaaep
b10101011 aaaew
1aaafa

#1725000
0aaafa

#1730000
b10101100 aaaep
b10101100 aaaew
1aaafa

#1735000
0aaafa

#1740000
b10101101 aaaep
b10101101 aaaew
1aaafa

#1745000
0aaafa

#1750000
b10101110 aaaep
b10101110 aaaew
1aaafa

#1755000
0aaafa

#1760000
b1 aaaeo
b10101111 aaaep
b1 aaaev
b10101111 aaaew
1aaafa

#1765000
0aaafa

#1770000
b0 aaaeo
b10110000 aaaep
b0 aaaev
b10110000 aaaew
1aaafa

#1775000
0aaafa

#1780000
b11 aaaeo
b10110001 aaaep
b11 aaaev
b10110001 aaaew
1aaafa

#1785000
0aaafa

#1790000
b1000 aaaeo
b10110010 aaaep
b1000 aaaev
b10110010 aaaew
1aaafa

#1795000
0aaafa

