LowEyeriss_v0808/Low_Eyeriss.vcd
$date
     Aug 08, 2021       21:38:30
$end

$version
 SystemC 2.3.4_pub_rev_20191203-Accellera --- May 20 2021 14:44:35
$end

$timescale
     1 ps
$end

$scope module SystemC $end
$scope module low_eyeriss_i $end
$var wire    1  aaaaa  in_vld       $end
$var wire    8  aaaab  w_wdata(0) [7:0]  $end
$var wire    8  aaaac  w_wdata(1) [7:0]  $end
$var wire    8  aaaad  w_wdata(2) [7:0]  $end
$var wire    8  aaaae  ifmap_wdata(0) [7:0]  $end
$var wire    8  aaaaf  ifmap_wdata(1) [7:0]  $end
$var wire    8  aaaag  ifmap_wdata(2) [7:0]  $end
$var wire    8  aaaah  ifmap_wdata(3) [7:0]  $end
$var wire    8  aaaai  ifmap_wdata(4) [7:0]  $end
$var wire    1  aaaaj  enable       $end
$var wire    1  aaaak  in_vld_PE       $end
$var wire    8  aaaal  weight_out_PE(0)(0) [7:0]  $end
$var wire    8  aaaam  ifmap_out_PE(0)(0) [7:0]  $end
$var wire   12  aaaan  ofmap_out(0)(0) [11:0]  $end
$var wire    1  aaafx  layer_done       $end
$scope module glb_i $end
$var wire    1  aaaao  channel_done       $end
$var wire    8  aaaap  ofmap_channel [7:0]  $end
$var wire   12  aaafe  ofmap_result [11:0]  $end
$var wire    1  aaaff  layer_done       $end
$var wire   12  aaafg  ofmap_out(2)(0) [11:0]  $end
$var wire   12  aaafh  ofmap_out(1)(0) [11:0]  $end
$var wire   12  aaafi  ofmap_out(0)(0) [11:0]  $end
$var wire    1  aaafj  out_vld(0)(0)       $end
$var wire    8  aaafk  ifmap_wdata(4) [7:0]  $end
$var wire    8  aaafl  ifmap_wdata(3) [7:0]  $end
$var wire    8  aaafm  ifmap_wdata(2) [7:0]  $end
$var wire    8  aaafn  ifmap_wdata(1) [7:0]  $end
$var wire    8  aaafo  ifmap_wdata(0) [7:0]  $end
$var wire    8  aaafp  w_wdata(2) [7:0]  $end
$var wire    8  aaafq  w_wdata(1) [7:0]  $end
$var wire    8  aaafr  w_wdata(0) [7:0]  $end
$var wire    1  aaafs  in_vld       $end
$var wire    8  aaaft  ifmap_rdata [7:0]  $end
$var wire   16  aaafu  addr_ifmpa_in [15:0]  $end
$var wire    8  aaafv  w_rdata [7:0]  $end
$var wire   16  aaafw  addr_w_in [15:0]  $end
$upscope $end
$scope module pe_array_i $end
$var wire   12  aaadt  ofmap_out(0)(0) [11:0]  $end
$var wire    1  aaadu  out_vld(0)(0)       $end
$var wire    8  aaadv  ifmap_out_PE(2)(1) [7:0]  $end
$var wire    8  aaadw  ifmap_out_PE(2)(0) [7:0]  $end
$var wire    8  aaadx  ifmap_out_PE(1)(1) [7:0]  $end
$var wire    8  aaady  ifmap_out_PE(1)(0) [7:0]  $end
$var wire    8  aaadz  ifmap_out_PE(0)(1) [7:0]  $end
$var wire    8  aaaea  ifmap_out_PE(0)(0) [7:0]  $end
$var wire    8  aaaeb  weight_out_PE(0)(0) [7:0]  $end
$var wire    1  aaaec  in_vld_PE       $end
$var wire    1  aaaed  enable       $end
$scope module PE_0_0 $end
$var wire   12  aaadn  ofmap_out [11:0]  $end
$var wire    8  aaado  ifmap_in [7:0]  $end
$var wire    8  aaadp  w_in [7:0]  $end
$var wire    1  aaadq  out_vld       $end
$var wire    1  aaadr  in_vld       $end
$var wire    1  aaads  enable       $end
$upscope $end
$scope module PE_0_1 $end
$var wire   12  aaabg  ofmap_out [11:0]  $end
$var wire    8  aaabh  ifmap_in [7:0]  $end
$var wire    8  aaabi  w_in [7:0]  $end
$var wire    1  aaabj  out_vld       $end
$var wire    1  aaabk  in_vld       $end
$var wire    1  aaabl  enable       $end
$upscope $end
$scope module PE_1_0 $end
$var wire   12  aaadh  ofmap_out [11:0]  $end
$var wire    8  aaadi  ifmap_in [7:0]  $end
$var wire    8  aaadj  w_in [7:0]  $end
$var wire    1  aaadk  out_vld       $end
$var wire    1  aaadl  in_vld       $end
$var wire    1  aaadm  enable       $end
$scope module mac_i $end
$var wire   12  aaacw  psum_tmp_MACtoReg [11:0]  $end
$var wire    8  aaacx  psum_tmp_RegtoMAC [7:0]  $end
$var wire    8  aaacy  ifmap [7:0]  $end
$var wire    8  aaacz  weight [7:0]  $end
$upscope $end
$scope module regfile_i $end
$var wire    8  aaada  psum_tmp_RegtoMAC [7:0]  $end
$var wire    8  aaadb  in [7:0]  $end
$var wire    8  aaadc  w [7:0]  $end
$var wire   12  aaadd  psum_tmp_MACtoReg [11:0]  $end
$var wire    8  aaade  ifmap_in [7:0]  $end
$var wire    8  aaadf  w_in [7:0]  $end
$var wire    1  aaadg  in_vld       $end
$upscope $end
$upscope $end
$scope module PE_1_1 $end
$var wire   12  aaabc  ofmap_out [11:0]  $end
$var wire    8  aaabd  ifmap_in [7:0]  $end
$var wire    8  aaabe  w_in [7:0]  $end
$var wire    1  aaabf  out_vld       $end
$upscope $end
$scope module PE_2_0 $end
$var wire   12  aaacq  ofmap_out [11:0]  $end
$var wire    8  aaacr  ifmap_in [7:0]  $end
$var wire    8  aaacs  w_in [7:0]  $end
$var wire    1  aaact  out_vld       $end
$var wire    1  aaacu  in_vld       $end
$var wire    1  aaacv  enable       $end
$upscope $end
$scope module PE_2_1 $end
$var wire   12  aaaay  ofmap_out [11:0]  $end
$var wire    8  aaaaz  ifmap_in [7:0]  $end
$var wire    8  aaaba  w_in [7:0]  $end
$var wire    1  aaabb  out_vld       $end
$upscope $end
$scope module PE_3_0 $end
$var wire   12  aaack  ofmap_out [11:0]  $end
$var wire    8  aaacl  ifmap_in [7:0]  $end
$var wire    8  aaacm  w_in [7:0]  $end
$var wire    1  aaacn  out_vld       $end
$var wire    1  aaaco  in_vld       $end
$var wire    1  aaacp  enable       $end
$upscope $end
$scope module PE_4_0 $end
$var wire   12  aaace  ofmap_out [11:0]  $end
$var wire    8  aaacf  ifmap_in [7:0]  $end
$var wire    8  aaacg  w_in [7:0]  $end
$var wire    1  aaach  out_vld       $end
$var wire    1  aaaci  in_vld       $end
$var wire    1  aaacj  enable       $end
$upscope $end
$scope module PE_5_0 $end
$var wire   12  aaaby  ofmap_out [11:0]  $end
$var wire    8  aaabz  ifmap_in [7:0]  $end
$var wire    8  aaaca  w_in [7:0]  $end
$var wire    1  aaacb  out_vld       $end
$var wire    1  aaacc  in_vld       $end
$var wire    1  aaacd  enable       $end
$upscope $end
$scope module PE_5_1 $end
$var wire   12  aaaas  ofmap_out [11:0]  $end
$var wire    8  aaaat  ifmap_in [7:0]  $end
$var wire    8  aaaau  w_in [7:0]  $end
$var wire    1  aaaav  out_vld       $end
$var wire    1  aaaaw  in_vld       $end
$var wire    1  aaaax  enable       $end
$upscope $end
$scope module PE_6_0 $end
$var wire   12  aaabs  ofmap_out [11:0]  $end
$var wire    8  aaabt  ifmap_in [7:0]  $end
$var wire    8  aaabu  w_in [7:0]  $end
$var wire    1  aaabv  out_vld       $end
$var wire    1  aaabw  in_vld       $end
$var wire    1  aaabx  enable       $end
$upscope $end
$scope module PE_9_0 $end
$var wire   12  aaabm  ofmap_out [11:0]  $end
$var wire    8  aaabn  ifmap_in [7:0]  $end
$var wire    8  aaabo  w_in [7:0]  $end
$var wire    1  aaabp  out_vld       $end
$var wire    1  aaabq  in_vld       $end
$var wire    1  aaabr  enable       $end
$upscope $end
$upscope $end
$scope module scheduler_i $end
$var wire    8  aaaaq  pass_tmp [7:0]  $end
$var wire    1  aaaar  start_sche       $end
$var wire    8  aaaee  ifmap_out_PE(2)(1) [7:0]  $end
$var wire    8  aaaef  ifmap_out_PE(2)(0) [7:0]  $end
$var wire    8  aaaeg  ifmap_out_PE(1)(1) [7:0]  $end
$var wire    8  aaaeh  ifmap_out_PE(1)(0) [7:0]  $end
$var wire    8  aaaei  ifmap_out_PE(0)(1) [7:0]  $end
$var wire    8  aaaej  ifmap_out_PE(0)(0) [7:0]  $end
$var wire    8  aaaek  weight_out_PE(7)(0) [7:0]  $end
$var wire    8  aaael  weight_out_PE(6)(0) [7:0]  $end
$var wire    8  aaaem  weight_out_PE(5)(3) [7:0]  $end
$var wire    8  aaaen  weight_out_PE(5)(2) [7:0]  $end
$var wire    8  aaaeo  weight_out_PE(5)(1) [7:0]  $end
$var wire    8  aaaep  weight_out_PE(5)(0) [7:0]  $end
$var wire    8  aaaeq  weight_out_PE(2)(0) [7:0]  $end
$var wire    8  aaaer  weight_out_PE(1)(0) [7:0]  $end
$var wire    8  aaaes  weight_out_PE(0)(0) [7:0]  $end
$var wire    1  aaaet  in_vld_PE       $end
$var wire    1  aaaeu  enable       $end
$var wire    8  aaaev  ifmap(4) [7:0]  $end
$var wire    8  aaaew  ifmap(3) [7:0]  $end
$var wire    8  aaaex  ifmap(2) [7:0]  $end
$var wire    8  aaaey  ifmap(1) [7:0]  $end
$var wire    8  aaaez  ifmap(0) [7:0]  $end
$var wire    8  aaafa  weight(2) [7:0]  $end
$var wire    8  aaafb  weight(1) [7:0]  $end
$var wire    8  aaafc  weight(0) [7:0]  $end
$var wire    1  aaafd  in_vld       $end
$upscope $end
$upscope $end
$scope module tb_i $end
$var wire   12  aaafy  ofmap_result [11:0]  $end
$var wire    1  aaafz  layer_done       $end
$var wire    8  aaaga  ifmap_rdata [7:0]  $end
$var wire   16  aaagb  addr_ifmpa_in [15:0]  $end
$var wire    8  aaagc  w_rdata [7:0]  $end
$var wire   16  aaagd  addr_w_in [15:0]  $end
$var wire    1  aaage  rst       $end
$var wire    1  aaagf  clk       $end
$upscope $end
$upscope $end
$enddefinitions  $end

$comment
All initial values are dumped below at time 0 sec = 0 timescale units.
$end

$dumpvars
0aaaaa
b0 aaaab
b0 aaaac
b0 aaaad
b0 aaaae
b0 aaaaf
b0 aaaag
b0 aaaah
b0 aaaai
0aaaaj
0aaaak
b0 aaaal
b0 aaaam
b0 aaaan
0aaaao
b0 aaaap
b0 aaaaq
0aaaar
b0 aaaas
b0 aaaat
b0 aaaau
0aaaav
0aaaaw
0aaaax
b0 aaaay
b0 aaaaz
b0 aaaba
0aaabb
b0 aaabc
b0 aaabd
b0 aaabe
0aaabf
b0 aaabg
b0 aaabh
b0 aaabi
0aaabj
0aaabk
0aaabl
b0 aaabm
b0 aaabn
b0 aaabo
0aaabp
0aaabq
0aaabr
b0 aaabs
b0 aaabt
b0 aaabu
0aaabv
0aaabw
0aaabx
b0 aaaby
b0 aaabz
b0 aaaca
0aaacb
0aaacc
0aaacd
b0 aaace
b0 aaacf
b0 aaacg
0aaach
0aaaci
0aaacj
b0 aaack
b0 aaacl
b0 aaacm
0aaacn
0aaaco
0aaacp
b0 aaacq
b0 aaacr
b0 aaacs
0aaact
0aaacu
0aaacv
b0 aaacw
b0 aaacx
b0 aaacy
b0 aaacz
b0 aaada
b0 aaadb
b0 aaadc
b0 aaadd
b0 aaade
b0 aaadf
0aaadg
b0 aaadh
b0 aaadi
b0 aaadj
0aaadk
0aaadl
0aaadm
b0 aaadn
b0 aaado
b0 aaadp
0aaadq
0aaadr
0aaads
b0 aaadt
0aaadu
b0 aaadv
b0 aaadw
b0 aaadx
b0 aaady
b0 aaadz
b0 aaaea
b0 aaaeb
0aaaec
0aaaed
b0 aaaee
b0 aaaef
b0 aaaeg
b0 aaaeh
b0 aaaei
b0 aaaej
b0 aaaek
b0 aaael
b0 aaaem
b0 aaaen
b0 aaaeo
b0 aaaep
b0 aaaeq
b0 aaaer
b0 aaaes
0aaaet
0aaaeu
b0 aaaev
b0 aaaew
b0 aaaex
b0 aaaey
b0 aaaez
b0 aaafa
b0 aaafb
b0 aaafc
0aaafd
b0 aaafe
0aaaff
b0 aaafg
b0 aaafh
b0 aaafi
0aaafj
b0 aaafk
b0 aaafl
b0 aaafm
b0 aaafn
b0 aaafo
b0 aaafp
b0 aaafq
b0 aaafr
0aaafs
b0 aaaft
b0 aaafu
b0 aaafv
b0 aaafw
0aaafx
b0 aaafy
0aaafz
b0 aaaga
b0 aaagb
b0 aaagc
b0 aaagd
1aaage
1aaagf
$end

#5000
0aaagf

#10000
0aaage
1aaagf

#15000
0aaagf

#20000
b1 aaafu
b1 aaafv
b1 aaafw
b1 aaagb
b1 aaagc
b1 aaagd
1aaagf

#25000
0aaagf

#30000
b10 aaafu
b0 aaafv
b10 aaafw
b10 aaagb
b0 aaagc
b10 aaagd
1aaagf

#35000
0aaagf

#40000
b1 aaaft
b11 aaafu
b1 aaafv
b11 aaafw
b1 aaaga
b11 aaagb
b1 aaagc
b11 aaagd
1aaagf

#45000
0aaagf

#50000
b100 aaafu
b0 aaafv
b100 aaafw
b100 aaagb
b0 aaagc
b100 aaagd
1aaagf

#55000
0aaagf

#60000
b0 aaaft
b101 aaafu
b101 aaafw
b0 aaaga
b101 aaagb
b101 aaagd
1aaagf

#65000
0aaagf

#70000
b110 aaafu
b110 aaafw
b110 aaagb
b110 aaagd
1aaagf

#75000
0aaagf

#80000
b111 aaafu
b1 aaafv
b111 aaafw
b111 aaagb
b1 aaagc
b111 aaagd
1aaagf

#85000
0aaagf

#90000
b1000 aaafu
b1000 aaafw
b1000 aaagb
b1000 aaagd
1aaagf

#95000
0aaagf

#100000
b1001 aaafu
b1001 aaafw
b1001 aaagb
b1001 aaagd
1aaagf

#105000
0aaagf

#110000
b1010 aaafu
b0 aaafv
b1010 aaafw
b1010 aaagb
b0 aaagc
b1010 aaagd
1aaagf

#115000
0aaagf

#120000
b1011 aaafu
b1011 aaafw
b1011 aaagb
b1011 aaagd
1aaagf

#125000
0aaagf

#130000
b1 aaaft
b1100 aaafu
b1100 aaafw
b1 aaaga
b1100 aaagb
b1100 aaagd
1aaagf

#135000
0aaagf

#140000
b1101 aaafu
b1101 aaafw
b1101 aaagb
b1101 aaagd
1aaagf

#145000
0aaagf

#150000
b1110 aaafu
b1110 aaafw
b1110 aaagb
b1110 aaagd
1aaagf

#155000
0aaagf

#160000
b0 aaaft
b1111 aaafu
b1 aaafv
b1111 aaafw
b0 aaaga
b1111 aaagb
b1 aaagc
b1111 aaagd
1aaagf

#165000
0aaagf

#170000
b10000 aaafu
b0 aaafv
b10000 aaafw
b10000 aaagb
b0 aaagc
b10000 aaagd
1aaagf

#175000
0aaagf

#180000
b10001 aaafu
b1 aaafv
b10001 aaafw
b10001 aaagb
b1 aaagc
b10001 aaagd
1aaagf

#185000
0aaagf

#190000
b10010 aaafu
b0 aaafv
b10010 aaafw
b10010 aaagb
b0 aaagc
b10010 aaagd
1aaagf

#195000
0aaagf

#200000
b10011 aaafu
b10011 aaafw
b10011 aaagb
b10011 aaagd
1aaagf

#205000
0aaagf

#210000
b10100 aaafu
b10100 aaafw
b10100 aaagb
b10100 aaagd
1aaagf

#215000
0aaagf

#220000
b10101 aaafu
b10101 aaafw
b10101 aaagb
b10101 aaagd
1aaagf

#225000
0aaagf

#230000
b10110 aaafu
b1 aaafv
b10110 aaafw
b10110 aaagb
b1 aaagc
b10110 aaagd
1aaagf

#235000
0aaagf

#240000
b10111 aaafu
b0 aaafv
b10111 aaafw
b10111 aaagb
b0 aaagc
b10111 aaagd
1aaagf

#245000
0aaagf

#250000
b11000 aaafu
b11000 aaafw
b11000 aaagb
b11000 aaagd
1aaagf

#255000
0aaagf

#260000
b1 aaaft
b11001 aaafu
b1 aaafv
b11001 aaafw
b1 aaaga
b11001 aaagb
b1 aaagc
b11001 aaagd
1aaagf

#265000
0aaagf

#270000
b0 aaaft
b11010 aaafu
b11010 aaafw
b0 aaaga
b11010 aaagb
b11010 aaagd
1aaagf

#275000
0aaagf

#280000
b1 aaaft
b11011 aaafu
b11011 aaafw
b1 aaaga
b11011 aaagb
b11011 aaagd
1aaagf

#285000
0aaagf

#290000
b0 aaaft
b11100 aaafu
b11100 aaafw
b0 aaaga
b11100 aaagb
b11100 aaagd
1aaagf

#295000
0aaagf

#300000
b1 aaaft
b11101 aaafu
b11101 aaafw
b1 aaaga
b11101 aaagb
b11101 aaagd
1aaagf

#305000
0aaagf

#310000
b0 aaaft
b11110 aaafu
b0 aaafv
b11110 aaafw
b0 aaaga
b11110 aaagb
b0 aaagc
b11110 aaagd
1aaagf

#315000
0aaagf

#320000
b1 aaaft
b11111 aaafu
b1 aaafv
b11111 aaafw
b1 aaaga
b11111 aaagb
b1 aaagc
b11111 aaagd
1aaagf

#325000
0aaagf

#330000
b100000 aaafu
b100000 aaafw
b100000 aaagb
b100000 aaagd
1aaagf

#335000
0aaagf

#340000
b0 aaaft
b100001 aaafu
b100001 aaafw
b0 aaaga
b100001 aaagb
b100001 aaagd
1aaagf

#345000
0aaagf

#350000
b1 aaaft
b100010 aaafu
b100010 aaafw
b1 aaaga
b100010 aaagb
b100010 aaagd
1aaagf

#355000
0aaagf

#360000
b100011 aaafu
b0 aaafv
b100011 aaafw
b100011 aaagb
b0 aaagc
b100011 aaagd
1aaagf

#365000
0aaagf

#370000
b100100 aaafu
b1 aaafv
b100100 aaafw
b100100 aaagb
b1 aaagc
b100100 aaagd
1aaagf

#375000
0aaagf

#380000
b0 aaaft
b100101 aaafu
b0 aaafv
b100101 aaafw
b0 aaaga
b100101 aaagb
b0 aaagc
b100101 aaagd
1aaagf

#385000
0aaagf

#390000
b100110 aaafu
b100110 aaafw
b100110 aaagb
b100110 aaagd
1aaagf

#395000
0aaagf

#400000
b100111 aaafu
b1 aaafv
b100111 aaafw
b100111 aaagb
b1 aaagc
b100111 aaagd
1aaagf

#405000
0aaagf

#410000
b101000 aaafu
b101000 aaafw
b101000 aaagb
b101000 aaagd
1aaagf

#415000
0aaagf

#420000
b1 aaaft
b101001 aaafu
b101001 aaafw
b1 aaaga
b101001 aaagb
b101001 aaagd
1aaagf

#425000
0aaagf

#430000
b101010 aaafu
b0 aaafv
b101010 aaafw
b101010 aaagb
b0 aaagc
b101010 aaagd
1aaagf

#435000
0aaagf

#440000
b101011 aaafu
b101011 aaafw
b101011 aaagb
b101011 aaagd
1aaagf

#445000
0aaagf

#450000
b101100 aaafu
b1 aaafv
b101100 aaafw
b101100 aaagb
b1 aaagc
b101100 aaagd
1aaagf

#455000
0aaagf

#460000
b0 aaaft
b101101 aaafu
b0 aaafv
b101101 aaafw
b0 aaaga
b101101 aaagb
b0 aaagc
b101101 aaagd
1aaagf

#465000
0aaagf

#470000
b101110 aaafu
b101110 aaafw
b101110 aaagb
b101110 aaagd
1aaagf

#475000
0aaagf

#480000
b101111 aaafu
b101111 aaafw
b101111 aaagb
b101111 aaagd
1aaagf

#485000
0aaagf

#490000
b110000 aaafu
b1 aaafv
b110000 aaafw
b110000 aaagb
b1 aaagc
b110000 aaagd
1aaagf

#495000
0aaagf

#500000
b110001 aaafu
b110001 aaafw
b110001 aaagb
b110001 aaagd
1aaagf

#505000
0aaagf

#510000
b1 aaaft
b110010 aaafu
b110010 aaafw
b1 aaaga
b110010 aaagb
b110010 aaagd
1aaagf

#515000
0aaagf

#520000
b0 aaaft
b110011 aaafu
b0 aaafv
b110011 aaafw
b0 aaaga
b110011 aaagb
b0 aaagc
b110011 aaagd
1aaagf

#525000
0aaagf

#530000
b1 aaaft
b110100 aaafu
b110100 aaafw
b1 aaaga
b110100 aaagb
b110100 aaagd
1aaagf

#535000
0aaagf

#540000
b110101 aaafu
b110101 aaafw
b110101 aaagb
b110101 aaagd
1aaagf

#545000
0aaagf

#550000
b110110 aaafu
b1 aaafv
b110110 aaafw
b110110 aaagb
b1 aaagc
b110110 aaagd
1aaagf

#555000
0aaagf

#560000
b0 aaaft
b110111 aaafu
b0 aaafv
b110111 aaafw
b0 aaaga
b110111 aaagb
b0 aaagc
b110111 aaagd
1aaagf

#565000
0aaagf

#570000
b111000 aaafu
b111000 aaafw
b111000 aaagb
b111000 aaagd
1aaagf

#575000
0aaagf

#580000
b1 aaaft
b111001 aaafu
b1 aaafv
b111001 aaafw
b1 aaaga
b111001 aaagb
b1 aaagc
b111001 aaagd
1aaagf

#585000
0aaagf

#590000
b111010 aaafu
b0 aaafv
b111010 aaafw
b111010 aaagb
b0 aaagc
b111010 aaagd
1aaagf

#595000
0aaagf

#600000
b0 aaaft
b111011 aaafu
b1 aaafv
b111011 aaafw
b0 aaaga
b111011 aaagb
b1 aaagc
b111011 aaagd
1aaagf

#605000
0aaagf

#610000
b111100 aaafu
b0 aaafv
b111100 aaafw
b111100 aaagb
b0 aaagc
b111100 aaagd
1aaagf

#615000
0aaagf

#620000
b1 aaaft
b111101 aaafu
b1 aaafv
b111101 aaafw
b1 aaaga
b111101 aaagb
b1 aaagc
b111101 aaagd
1aaagf

#625000
0aaagf

#630000
b0 aaaft
b111110 aaafu
b0 aaafv
b111110 aaafw
b0 aaaga
b111110 aaagb
b0 aaagc
b111110 aaagd
1aaagf

#635000
0aaagf

#640000
b111111 aaafu
b1 aaafv
b111111 aaafw
b111111 aaagb
b1 aaagc
b111111 aaagd
1aaagf

#645000
0aaagf

#650000
b1 aaaft
b1000000 aaafu
b1000000 aaafw
b1 aaaga
b1000000 aaagb
b1000000 aaagd
1aaagf

#655000
0aaagf

#660000
b1000001 aaafu
b1000001 aaafw
b1000001 aaagb
b1000001 aaagd
1aaagf

#665000
0aaagf

#670000
b1000010 aaafu
b0 aaafv
b1000010 aaafw
b1000010 aaagb
b0 aaagc
b1000010 aaagd
1aaagf

#675000
0aaagf

#680000
b0 aaaft
b1000011 aaafu
b1 aaafv
b1000011 aaafw
b0 aaaga
b1000011 aaagb
b1 aaagc
b1000011 aaagd
1aaagf

#685000
0aaagf

#690000
b1000100 aaafu
b0 aaafv
b1000100 aaafw
b1000100 aaagb
b0 aaagc
b1000100 aaagd
1aaagf

#695000
0aaagf

#700000
b1 aaaft
b1000101 aaafu
b1 aaafv
b1000101 aaafw
b1 aaaga
b1000101 aaagb
b1 aaagc
b1000101 aaagd
1aaagf

#705000
0aaagf

#710000
b1000110 aaafu
b1000110 aaafw
b1000110 aaagb
b1000110 aaagd
1aaagf

#715000
0aaagf

#720000
b0 aaaft
b1000111 aaafu
b1000111 aaafw
b0 aaaga
b1000111 aaagb
b1000111 aaagd
1aaagf

#725000
0aaagf

#730000
b1 aaaft
b1001000 aaafu
b0 aaafv
b1001000 aaafw
b1 aaaga
b1001000 aaagb
b0 aaagc
b1001000 aaagd
1aaagf

#735000
0aaagf

#740000
b1001001 aaafu
b1 aaafv
b1001001 aaafw
b1001001 aaagb
b1 aaagc
b1001001 aaagd
1aaagf

#745000
0aaagf

#750000
b1001010 aaafu
b0 aaafv
b1001010 aaafw
b1001010 aaagb
b0 aaagc
b1001010 aaagd
1aaagf

#755000
0aaagf

#760000
b1001011 aaafu
b1001011 aaafw
b1001011 aaagb
b1001011 aaagd
1aaagf

#765000
0aaagf

#770000
b1001100 aaafu
b1 aaafv
b1001100 aaafw
b1001100 aaagb
b1 aaagc
b1001100 aaagd
1aaagf

#775000
0aaagf

#780000
b1001101 aaafu
b1001101 aaafw
b1001101 aaagb
b1001101 aaagd
1aaagf

#785000
0aaagf

#790000
b1001110 aaafu
b0 aaafv
b1001110 aaafw
b1001110 aaagb
b0 aaagc
b1001110 aaagd
1aaagf

#795000
0aaagf

#800000
b1001111 aaafu
b1 aaafv
b1001111 aaafw
b1001111 aaagb
b1 aaagc
b1001111 aaagd
1aaagf

#805000
0aaagf

#810000
b0 aaaft
b1010000 aaafu
b0 aaafv
b1010000 aaafw
b0 aaaga
b1010000 aaagb
b0 aaagc
b1010000 aaagd
1aaagf

#815000
0aaagf

#820000
b1010001 aaafu
b1 aaafv
b1010001 aaafw
b1010001 aaagb
b1 aaagc
b1010001 aaagd
1aaagf

#825000
0aaagf

#830000
b1010010 aaafu
b1010010 aaafw
b1010010 aaagb
b1010010 aaagd
1aaagf

#835000
0aaagf

#840000
b1010011 aaafu
b0 aaafv
b1010011 aaafw
b1010011 aaagb
b0 aaagc
b1010011 aaagd
1aaagf

#845000
0aaagf

#850000
b1 aaaft
b1010100 aaafu
b1010100 aaafw
b1 aaaga
b1010100 aaagb
b1010100 aaagd
1aaagf

#855000
0aaagf

#860000
b1010101 aaafu
b1 aaafv
b1010101 aaafw
b1010101 aaagb
b1 aaagc
b1010101 aaagd
1aaagf

#865000
0aaagf

#870000
b0 aaaft
b1010110 aaafu
b0 aaafv
b1010110 aaafw
b0 aaaga
b1010110 aaagb
b0 aaagc
b1010110 aaagd
1aaagf

#875000
0aaagf

#880000
b1010111 aaafu
b1010111 aaafw
b1010111 aaagb
b1010111 aaagd
1aaagf

#885000
0aaagf

#890000
b1 aaaft
b1011000 aaafu
b1011000 aaafw
b1 aaaga
b1011000 aaagb
b1011000 aaagd
1aaagf

#895000
0aaagf

#900000
b1011001 aaafu
b1 aaafv
b1011001 aaafw
b1011001 aaagb
b1 aaagc
b1011001 aaagd
1aaagf

#905000
0aaagf

#910000
b0 aaaft
b1011010 aaafu
b0 aaafv
b1011010 aaafw
b0 aaaga
b1011010 aaagb
b0 aaagc
b1011010 aaagd
1aaagf

#915000
0aaagf

#920000
b1011011 aaafu
b1 aaafv
b1011011 aaafw
b1011011 aaagb
b1 aaagc
b1011011 aaagd
1aaagf

#925000
0aaagf

#930000
b1 aaaft
b1011100 aaafu
b1011100 aaafw
b1 aaaga
b1011100 aaagb
b1011100 aaagd
1aaagf

#935000
0aaagf

#940000
b0 aaaft
b1011101 aaafu
b1011101 aaafw
b0 aaaga
b1011101 aaagb
b1011101 aaagd
1aaagf

#945000
0aaagf

#950000
b1011110 aaafu
b1011110 aaafw
b1011110 aaagb
b1011110 aaagd
1aaagf

#955000
0aaagf

#960000
b1011111 aaafu
b1011111 aaafw
b1011111 aaagb
b1011111 aaagd
1aaagf

#965000
0aaagf

#970000
b1100000 aaafu
b0 aaafv
b1100000 aaafw
b1100000 aaagb
b0 aaagc
b1100000 aaagd
1aaagf

#975000
0aaagf

#980000
b1100001 aaafu
b1 aaafv
b1100001 aaafw
b1100001 aaagb
b1 aaagc
b1100001 aaagd
1aaagf

#985000
0aaagf

#990000
b1 aaaft
b1100010 aaafu
b0 aaafv
b1100010 aaafw
b1 aaaga
b1100010 aaagb
b0 aaagc
b1100010 aaagd
1aaagf

#995000
0aaagf

#1000000
b1100011 aaafu
b1 aaafv
b1100011 aaafw
b1100011 aaagb
b1 aaagc
b1100011 aaagd
1aaagf

#1005000
0aaagf

#1010000
b0 aaaft
b1100100 aaafu
b1100100 aaafw
b0 aaaga
b1100100 aaagb
b1100100 aaagd
1aaagf

#1015000
0aaagf

#1020000
b1100101 aaafu
b0 aaafv
b1100101 aaafw
b1100101 aaagb
b0 aaagc
b1100101 aaagd
1aaagf

#1025000
0aaagf

#1030000
b1 aaaft
b1100110 aaafu
b1100110 aaafw
b1 aaaga
b1100110 aaagb
b1100110 aaagd
1aaagf

#1035000
0aaagf

#1040000
b1100111 aaafu
b1 aaafv
b1100111 aaafw
b1100111 aaagb
b1 aaagc
b1100111 aaagd
1aaagf

#1045000
0aaagf

#1050000
b0 aaaft
b1101000 aaafu
b0 aaafv
b1101000 aaafw
b0 aaaga
b1101000 aaagb
b0 aaagc
b1101000 aaagd
1aaagf

#1055000
0aaagf

#1060000
b1101001 aaafu
b1101001 aaafw
b1101001 aaagb
b1101001 aaagd
1aaagf

#1065000
0aaagf

#1070000
b1 aaaft
b1101010 aaafu
b1101010 aaafw
b1 aaaga
b1101010 aaagb
b1101010 aaagd
1aaagf

#1075000
0aaagf

#1080000
b0 aaaft
b1101011 aaafu
b1101011 aaafw
b0 aaaga
b1101011 aaagb
b1101011 aaagd
1aaagf

#1085000
0aaagf

#1090000
b1101100 aaafu
b1 aaafv
b1101100 aaafw
b1101100 aaagb
b1 aaagc
b1101100 aaagd
1aaagf

#1095000
0aaagf

#1100000
b1101101 aaafu
b1101101 aaafw
b1101101 aaagb
b1101101 aaagd
1aaagf

#1105000
0aaagf

#1110000
b1 aaaft
b1101110 aaafu
b1101110 aaafw
b1 aaaga
b1101110 aaagb
b1101110 aaagd
1aaagf

#1115000
0aaagf

#1120000
b1101111 aaafu
b1101111 aaafw
b1101111 aaagb
b1101111 aaagd
1aaagf

#1125000
0aaagf

#1130000
b0 aaaft
b1110000 aaafu
b0 aaafv
b1110000 aaafw
b0 aaaga
b1110000 aaagb
b0 aaagc
b1110000 aaagd
1aaagf

#1135000
0aaagf

#1140000
b1 aaaft
b1110001 aaafu
b1110001 aaafw
b1 aaaga
b1110001 aaagb
b1110001 aaagd
1aaagf

#1145000
0aaagf

#1150000
b0 aaaft
b1110010 aaafu
b1 aaafv
b1110010 aaafw
b0 aaaga
b1110010 aaagb
b1 aaagc
b1110010 aaagd
1aaagf

#1155000
0aaagf

#1160000
b1110011 aaafu
b0 aaafv
b1110011 aaafw
b1110011 aaagb
b0 aaagc
b1110011 aaagd
1aaagf

#1165000
0aaagf

#1170000
b1 aaaft
b1110100 aaafu
b1 aaafv
b1110100 aaafw
b1 aaaga
b1110100 aaagb
b1 aaagc
b1110100 aaagd
1aaagf

#1175000
0aaagf

#1180000
b0 aaaft
b1110101 aaafu
b1110101 aaafw
b0 aaaga
b1110101 aaagb
b1110101 aaagd
1aaagf

#1185000
0aaagf

#1190000
b1 aaaft
b1110110 aaafu
b0 aaafv
b1110110 aaafw
b1 aaaga
b1110110 aaagb
b0 aaagc
b1110110 aaagd
1aaagf

#1195000
0aaagf

#1200000
b1110111 aaafu
b1110111 aaafw
b1110111 aaagb
b1110111 aaagd
1aaagf

#1205000
0aaagf

#1210000
b0 aaaft
b1111000 aaafu
b1 aaafv
b1111000 aaafw
b0 aaaga
b1111000 aaagb
b1 aaagc
b1111000 aaagd
1aaagf

#1215000
0aaagf

#1220000
b1 aaaft
b1111001 aaafu
b1 aaaga
b1111001 aaagb
1aaagf

#1225000
0aaagf

#1230000
b1111010 aaafu
b0 aaafw
b1111010 aaagb
b0 aaagd
1aaagf

